<?xml version="1.0" encoding="UTF-8"?>
<testResults version="1.2">
<httpSample t="1076" it="0" lt="538" ct="183" ts="1685363110227" s="true" lb="HTTP Request" rc="200" rm="OK" tn="Thread Group 1-1" dt="text" by="21612" sby="230" ng="1" na="1">
  <httpSample t="542" it="0" lt="538" ct="183" ts="1685363110227" s="true" lb="HTTP Request-0" rc="301" rm="Moved Permanently" tn="Thread Group 1-1" dt="text" by="832" sby="113" ng="1" na="1">
    <java.net.URL>https://google.com/</java.net.URL>
  </httpSample>
  <httpSample t="534" it="0" lt="517" ct="69" ts="1685363110769" s="true" lb="HTTP Request-1" rc="200" rm="OK" tn="Thread Group 1-1" dt="text" by="20780" sby="117" ng="1" na="1">
    <java.net.URL>https://www.google.com/</java.net.URL>
  </httpSample>
  <java.net.URL>https://www.google.com/</java.net.URL>
</httpSample>
<sample t="16" it="0" lt="0" ct="0" ts="1685363111306" s="false" lb="JSR223 Sampler" rc="500" rm="javax.script.ScriptException: Both script file and script text are empty for element:JSR223 Sampler" tn="Thread Group 1-1" dt="text" by="0" sby="0" ng="1" na="1"/>

<httpSample t="1312" it="0" lt="510" ct="163" ts="1685363324860" s="true" lb="HTTP Request" rc="200" rm="OK" tn="Thread Group 1-1" dt="text" by="21639" sby="230" ng="1" na="1">
  <httpSample t="511" it="0" lt="510" ct="163" ts="1685363324860" s="true" lb="HTTP Request-0" rc="301" rm="Moved Permanently" tn="Thread Group 1-1" dt="text" by="832" sby="113" ng="1" na="1">
    <java.net.URL>https://google.com/</java.net.URL>
  </httpSample>
  <httpSample t="801" it="0" lt="783" ct="85" ts="1685363325371" s="true" lb="HTTP Request-1" rc="200" rm="OK" tn="Thread Group 1-1" dt="text" by="20807" sby="117" ng="1" na="1">
    <java.net.URL>https://www.google.com/</java.net.URL>
  </httpSample>
  <java.net.URL>https://www.google.com/</java.net.URL>
</httpSample>
<sample t="1" it="0" lt="0" ct="0" ts="1685363326174" s="true" lb="BeanShell Sampler" rc="200" rm="OK" tn="Thread Group 1-1" dt="text" by="0" sby="0" ng="1" na="1"/>
<sample t="3" it="0" lt="0" ct="0" ts="1685363326181" s="true" lb="Debug Sampler" rc="200" rm="OK" tn="Thread Group 1-1" dt="text" by="3346" sby="0" ng="1" na="1"/>

<httpSample t="1105" it="0" lt="512" ct="164" ts="1685363468708" s="true" lb="HTTP Request" rc="200" rm="OK" tn="Thread Group 1-1" dt="text" by="21661" sby="230" ng="1" na="1">
  <httpSample t="515" it="0" lt="512" ct="164" ts="1685363468708" s="true" lb="HTTP Request-0" rc="301" rm="Moved Permanently" tn="Thread Group 1-1" dt="text" by="832" sby="113" ng="1" na="1">
    <java.net.URL>https://google.com/</java.net.URL>
  </httpSample>
  <httpSample t="589" it="0" lt="557" ct="78" ts="1685363469224" s="true" lb="HTTP Request-1" rc="200" rm="OK" tn="Thread Group 1-1" dt="text" by="20829" sby="117" ng="1" na="1">
    <java.net.URL>https://www.google.com/</java.net.URL>
  </httpSample>
  <java.net.URL>https://www.google.com/</java.net.URL>
</httpSample>
<sample t="1" it="0" lt="0" ct="0" ts="1685363469816" s="true" lb="BeanShell Sampler" rc="200" rm="OK" tn="Thread Group 1-1" dt="text" by="0" sby="0" ng="1" na="1"/>
<sample t="2" it="0" lt="0" ct="0" ts="1685363469823" s="true" lb="Debug Sampler" rc="200" rm="OK" tn="Thread Group 1-1" dt="text" by="3354" sby="0" ng="1" na="1"/>

<httpSample t="1369" it="0" lt="830" ct="456" ts="1685363615928" s="true" lb="HTTP Request" rc="200" rm="OK" tn="Thread Group 1-1" dt="text" by="21614" sby="230" ng="1" na="1">
  <httpSample t="832" it="0" lt="830" ct="456" ts="1685363615928" s="true" lb="HTTP Request-0" rc="301" rm="Moved Permanently" tn="Thread Group 1-1" dt="text" by="832" sby="113" ng="1" na="1">
    <java.net.URL>https://google.com/</java.net.URL>
  </httpSample>
  <httpSample t="536" it="0" lt="524" ct="82" ts="1685363616761" s="true" lb="HTTP Request-1" rc="200" rm="OK" tn="Thread Group 1-1" dt="text" by="20782" sby="117" ng="1" na="1">
    <java.net.URL>https://www.google.com/</java.net.URL>
  </httpSample>
  <java.net.URL>https://www.google.com/</java.net.URL>
</httpSample>
<sample t="1" it="0" lt="0" ct="0" ts="1685363617303" s="true" lb="BeanShell Sampler" rc="200" rm="OK" tn="Thread Group 1-1" dt="text" by="0" sby="0" ng="1" na="1"/>
<sample t="2" it="0" lt="0" ct="0" ts="1685363617312" s="true" lb="Debug Sampler" rc="200" rm="OK" tn="Thread Group 1-1" dt="text" by="3354" sby="0" ng="1" na="1"/>

</testResults>
