timeStamp,elapsed,label,responseCode,responseMessage,threadName,dataType,success,failureMessage,bytes,sentBytes,grpThreads,allThreads,URL,Latency,IdleTime,Connect
1684485343487,351,CSRF-1,200,OK,Parse Assignment Id 1-1,text,true,,2062754,10854,1,1,https://cs101.bodhi.cse.iitb.ac.in/accounts/login/,131,0,79
1684485343840,1351,LOGIN-1,200,OK,Parse Assignment Id 1-1,text,true,,13809044,8779,1,1,https://cs101.bodhi.cse.iitb.ac.in/frontend/courseware/courseslist/,102,0,3
1684485345195,98,student courses id-1,200,OK,Parse Assignment Id 1-1,text,true,,3719,1009,1,1,https://cs101.bodhi.cse.iitb.ac.in/courseware/student_courses_json/,14,0,0
1684485345301,66,assignment id-1,200,OK,Parse Assignment Id 1-1,text,true,,591,741,1,1,https://cs101.bodhi.cse.iitb.ac.in/courseware/api/course/%2088/all_published_assignments/?format=json&csrfmiddlewaretoken=ZbgG67QzFmVgWZv51p9EjGAHfEB5z4Va,66,0,0
1684485343457,1866,Test-1,200,"Number of samples in transaction : 4, number of failing samples : 0",Parse Assignment Id 1-1,,true,,15876108,21383,1,1,null,313,58,82
1684485345382,1,Debug Sampler-1,200,OK,Parse Assignment Id 1-1,text,true,,2283,0,1,1,null,0,0,0
1684485345394,254,CSRF-1,200,OK,clear exam histroy 2-1,text,true,,2062741,10854,1,1,https://cs101.bodhi.cse.iitb.ac.in/accounts/login/,58,0,12
1684485345652,1334,LOGIN-1,200,OK,clear exam histroy 2-1,text,true,,13809103,8786,1,1,https://cs101.bodhi.cse.iitb.ac.in/frontend/courseware/courseslist/,99,0,5
1684485346989,292,clear exam histroy-1,200,OK,clear exam histroy 2-1,text,true,,1456706,20371,1,1,https://cs101.bodhi.cse.iitb.ac.in/assignments/exam/proctoring/88,75,0,0
1684485347283,1,Debug Sampler,200,OK,clear exam histroy 2-1,text,true,,5124,0,1,1,null,0,0,0
1684485347289,233,CSRF-1,200,OK,Assignment Setup 3-1,text,true,,2062755,10854,1,1,https://cs101.bodhi.cse.iitb.ac.in/accounts/login/,49,0,6
1684485347528,1350,LOGIN-1,200,OK,Assignment Setup 3-1,text,true,,13809068,8786,1,1,https://cs101.bodhi.cse.iitb.ac.in/frontend/courseware/courseslist/,115,0,7
1684485348881,602,Fetch Section Id,200,OK,Assignment Setup 3-1,text,true,,3312844,18626,1,1,https://cs101.bodhi.cse.iitb.ac.in/assignments/details/1673,299,0,0
1684485349487,339,Delete Sections,200,OK,Assignment Setup 3-1,text,true,,63937,21436,1,1,https://cs101.bodhi.cse.iitb.ac.in/assignments/details/1673,87,0,0
1684485349827,462,Delete Sections,200,OK,Assignment Setup 3-1,text,true,,62642,21436,1,1,https://cs101.bodhi.cse.iitb.ac.in/assignments/details/1673,88,0,0
1684485350290,285,JSR223 Sampler,200,OK,Assignment Setup 3-1,text,true,,0,0,1,1,null,0,0,0
1684485350575,989,"Modify Assignment publish,deadline",200,OK,Assignment Setup 3-1,text,true,,65672,38892,1,1,https://cs101.bodhi.cse.iitb.ac.in/assignments/details/1673,713,0,0
1684485351565,0,Debug Sampler,200,OK,Assignment Setup 3-1,text,true,,5687,0,1,1,null,0,0,0
1684485351575,229,CSRF-1,200,OK,Student Upload File 4-1,text,true,,2062755,10854,1,1,https://cs101.bodhi.cse.iitb.ac.in/accounts/login/,45,0,6
1684485351807,1334,LOGIN-1,200,OK,Student Upload File 4-1,text,true,,13809033,8779,1,1,https://cs101.bodhi.cse.iitb.ac.in/frontend/courseware/courseslist/,96,0,5
1684485353142,559,OPEN ASSIGNMENT FILE UPLOAD-1,200,OK,Student Upload File 4-1,text,true,,2720839,18090,1,1,https://cs101.bodhi.cse.iitb.ac.in/assignments/details/1673,318,0,0
1684485353703,505,Upload ALL PASS PROGRAM,200,OK,Student Upload File 4-1,text,true,,50196,21558,1,1,https://cs101.bodhi.cse.iitb.ac.in/assignments/details/1673,231,0,0
1684485354709,333,GetSubmissionId,200,OK,Student Upload File 4-1,text,true,,49906,20339,1,1,https://cs101.bodhi.cse.iitb.ac.in/assignments/details/1673,304,0,0
1684485355042,563,Upload PARTIAL PASS PROGRAM,200,OK,Student Upload File 4-1,text,true,,50188,21584,1,1,https://cs101.bodhi.cse.iitb.ac.in/assignments/details/1673,280,0,0
1684485356106,276,GetSubmissionId,200,OK,Student Upload File 4-1,text,true,,49906,20339,1,1,https://cs101.bodhi.cse.iitb.ac.in/assignments/details/1673,253,0,0
1684485356383,542,Upload ALL FAIL PROGRAM,200,OK,Student Upload File 4-1,text,true,,50195,21572,1,1,https://cs101.bodhi.cse.iitb.ac.in/assignments/details/1673,262,0,0
1684485357426,307,GetSubmissionId,200,OK,Student Upload File 4-1,text,true,,49537,20339,1,1,https://cs101.bodhi.cse.iitb.ac.in/assignments/details/1673,276,0,0
1684485357735,0,Debug Sampler-1,200,OK,Student Upload File 4-1,text,true,,2309,0,1,1,null,0,0,0
1684485357735,1220,freezeAssignment-ALL PASS,200,OK,Student Upload File 4-1,text,true,,532118,18375,1,1,https://cs101.bodhi.cse.iitb.ac.in/upload/freeze/280633,1153,0,0
1684485359042,2297,RunPractice,200,OK,Student Upload File 4-1,text,true,,972907,57104,1,1,https://cs101.bodhi.cse.iitb.ac.in/evaluate/practice/280633,2156,0,0
1684485361379,130,JSR223 Sampler,200,OK,Student Upload File 4-1,text,true,,0,0,1,1,null,0,0,0
1684485364640,263,TestcasesResults,200,OK,Student Upload File 4-1,text,true,,61598,34082,1,1,https://cs101.bodhi.cse.iitb.ac.in/evaluate/results/practice/280633,217,0,0
1684485364920,1257,freezeAssignment-PARTIAL PASS,200,OK,Student Upload File 4-1,text,true,,203475,18623,1,1,https://cs101.bodhi.cse.iitb.ac.in/upload/freeze/280634,1218,0,0
1684485366178,2168,RunPractice,200,OK,Student Upload File 4-1,text,true,,50261,34074,1,1,https://cs101.bodhi.cse.iitb.ac.in/evaluate/practice/280634,2139,0,0
1684485368347,35,JSR223 Sampler,200,OK,Student Upload File 4-1,text,true,,0,0,1,1,null,0,0,0
1684485371464,241,TestcasesResults,200,OK,Student Upload File 4-1,text,true,,61591,34082,1,1,https://cs101.bodhi.cse.iitb.ac.in/evaluate/results/practice/280634,209,0,0
1684485371706,1227,freezeAssignment-ALL FAIL,200,OK,Student Upload File 4-1,text,true,,203523,18623,1,1,https://cs101.bodhi.cse.iitb.ac.in/upload/freeze/280635,1189,0,0
1684485372934,2165,RunPractice,200,OK,Student Upload File 4-1,text,true,,50260,34074,1,1,https://cs101.bodhi.cse.iitb.ac.in/evaluate/practice/280635,2129,0,0
1684485375101,31,JSR223 Sampler,200,OK,Student Upload File 4-1,text,true,,0,0,1,1,null,0,0,0
1684485383266,265,TestcasesResults,200,OK,Student Upload File 4-1,text,true,,61592,34082,1,1,https://cs101.bodhi.cse.iitb.ac.in/evaluate/results/practice/280635,229,0,0
1684485351575,15947,Test-1,200,"Number of samples in transaction : 29, number of failing samples : 0",Student Upload File 4-1,,true,,21092189,446573,1,1,null,12704,16010,11
1684485383532,0,Debug Sampler-1,200,OK,Student Upload File 4-1,text,true,,4179,0,1,1,null,0,0,0
1684485383534,245,CSRF-1,200,OK,Thread Group 5-1,text,true,,2062754,10854,1,1,https://cs101.bodhi.cse.iitb.ac.in/accounts/login/,53,0,7
1684485383534,54,CSRF-1-0,200,OK,Thread Group 5-1,text,true,,28432,379,1,1,https://cs101.bodhi.cse.iitb.ac.in/accounts/login/,53,0,7
1684485383592,39,CSRF-1-1,200,OK,Thread Group 5-1,bin,true,,105581,469,1,1,https://cs101.bodhi.cse.iitb.ac.in/static/elearning_academy/img/favicon.9c0b430b2487.ico,13,0,8
1684485383592,47,CSRF-1-2,200,OK,Thread Group 5-1,text,true,,104047,475,1,1,https://cs101.bodhi.cse.iitb.ac.in/static/elearning_academy/css/bootstrap.min.190debb08c6a.css,20,0,13
1684485383592,15,CSRF-1-3,200,OK,Thread Group 5-1,text,true,,3008,466,1,1,https://cs101.bodhi.cse.iitb.ac.in/static/elearning_academy/css/main.c37bd6b1e41c.css,15,0,9
1684485383592,3,CSRF-1-4,200,OK,Thread Group 5-1,text,true,,3089,465,1,1,https://cs101.bodhi.cse.iitb.ac.in/static/elearning_academy/css/wmd.ec885988aa35.css,3,0,0
1684485383592,22,CSRF-1-5,200,OK,Thread Group 5-1,text,true,,83302,487,1,1,https://cs101.bodhi.cse.iitb.ac.in/static/elearning_academy/plugins/editormd/css/editormd.e0d94a382cd0.css,9,0,7
1684485383592,14,CSRF-1-6,200,OK,Thread Group 5-1,bin,true,,3852,467,1,1,https://cs101.bodhi.cse.iitb.ac.in/static/registration/img/googlePlay.3ecd83bd073d.png,14,0,8
1684485383596,19,CSRF-1-7,200,OK,Thread Group 5-1,text,true,,19651,470,1,1,https://cs101.bodhi.cse.iitb.ac.in/static/elearning_academy/js/moment.min.004439d4e1c8.js,13,0,7
1684485383606,57,CSRF-1-8,200,OK,Thread Group 5-1,text,true,,84057,470,1,1,https://cs101.bodhi.cse.iitb.ac.in/static/elearning_academy/js/jquery.min.0a6e846b954e.js,20,0,12
1684485383607,57,CSRF-1-9,200,OK,Thread Group 5-1,text,true,,111148,470,1,1,https://cs101.bodhi.cse.iitb.ac.in/static/elearning_academy/js/jquery.wmd.4477f1316a8e.js,21,0,12
1684485383614,92,CSRF-1-10,200,OK,Thread Group 5-1,text,true,,222961,487,1,1,https://cs101.bodhi.cse.iitb.ac.in/static/elearning_academy/js/jquery-ui-1.10.3.custom.min.f8d939e2db29.js,19,0,11
1684485383615,15,CSRF-1-11,200,OK,Thread Group 5-1,text,true,,28170,473,1,1,https://cs101.bodhi.cse.iitb.ac.in/static/elearning_academy/js/bootstrap.min.9e25e8e29ef0.js,6,0,0
1684485383630,60,CSRF-1-12,200,OK,Thread Group 5-1,text,true,,167245,482,1,1,https://cs101.bodhi.cse.iitb.ac.in/static/elearning_academy/plugins/editormd/editormd.f9b0b175e6a9.js,10,0,0
1684485383631,31,CSRF-1-13,200,OK,Thread Group 5-1,text,true,,5888,486,1,1,https://cs101.bodhi.cse.iitb.ac.in/static/elearning_academy/plugins/editormd/languages/en.6c35e783bd07.js,31,0,21
1684485383640,68,CSRF-1-14,200,OK,Thread Group 5-1,text,true,,25581,488,1,1,https://cs101.bodhi.cse.iitb.ac.in/static/elearning_academy/plugins/editormd/lib/marked.min.1174e4a4e7aa.js,29,0,21
1684485383662,19,CSRF-1-15,200,OK,Thread Group 5-1,text,true,,18417,490,1,1,https://cs101.bodhi.cse.iitb.ac.in/static/elearning_academy/plugins/editormd/lib/prettify.min.a6358bcc55c4.js,8,0,0
1684485383663,113,CSRF-1-16,200,OK,Thread Group 5-1,text,true,,550432,478,1,1,https://cs101.bodhi.cse.iitb.ac.in/static/elearning_academy/js/react/0.10.0/react.ca46fb54cac4.js,9,0,0
1684485383664,115,CSRF-1-17,200,OK,Thread Group 5-1,text,true,,395337,487,1,1,https://cs101.bodhi.cse.iitb.ac.in/static/elearning_academy/js/react/0.10.0/JSXTransformer.efba3dea7fbe.js,12,0,0
1684485383681,11,CSRF-1-18,200,OK,Thread Group 5-1,text,true,,9491,472,1,1,https://cs101.bodhi.cse.iitb.ac.in/static/elearning_academy/js/react-pstate.48c08dee1e22.js,11,0,0
1684485383690,10,CSRF-1-19,200,OK,Thread Group 5-1,text,true,,6284,464,1,1,https://cs101.bodhi.cse.iitb.ac.in/static/elearning_academy/js/main.825f75d7f2f2.js,10,0,0
1684485383692,10,CSRF-1-20,200,OK,Thread Group 5-1,text,true,,2857,467,1,1,https://cs101.bodhi.cse.iitb.ac.in/static/elearning_academy/js/mixins.4eaff9059c97.jsx,10,0,0
1684485383700,12,CSRF-1-21,200,OK,Thread Group 5-1,text,true,,22908,471,1,1,https://cs101.bodhi.cse.iitb.ac.in/static/elearning_academy/js/components.72628a397a01.jsx,10,0,0
1684485383702,28,CSRF-1-22,200,OK,Thread Group 5-1,text,true,,61016,491,1,1,https://cs101.bodhi.cse.iitb.ac.in/static/elearning_academy/js/MathJax/MathJax.js?config=TeX-AMS-MML_HTMLorMML,12,0,0
1684485383534,245,CSRF-1,200,OK,Thread Group 5-1,text,true,,2062754,10854,1,1,https://cs101.bodhi.cse.iitb.ac.in/accounts/login/,53,0,7
1684485383780,0,Debug Sampler,200,OK,Thread Group 5-1,text,true,,1786,0,1,1,null,0,0,0
1684485383780,0,Debug Sampler,200,OK,Thread Group 5-1,text,true,,1786,0,1,1,null,0,0,0
