timeStamp,elapsed,label,responseCode,responseMessage,threadName,dataType,success,failureMessage,bytes,sentBytes,grpThreads,allThreads,URL,Latency,IdleTime,Connect
1687272100936,191,CSRF-1,200,OK,Parse Assignment Id 1-1,text,true,,27507,379,1,1,https://hansa.bodhi.cse.iitb.ac.in/accounts/login/,188,0,92
1687272101130,171,LOGIN-1,200,OK,Parse Assignment Id 1-1,text,true,,1927,1472,1,1,https://hansa.bodhi.cse.iitb.ac.in/frontend/courseware/courseslist/,116,0,4
1687272101130,116,LOGIN-1-0,302,Found,Parse Assignment Id 1-1,text,true,,591,756,1,1,https://hansa.bodhi.cse.iitb.ac.in/accounts/login/,116,0,4
1687272101249,52,LOGIN-1-1,200,OK,Parse Assignment Id 1-1,text,true,,1336,716,1,1,https://hansa.bodhi.cse.iitb.ac.in/frontend/courseware/courseslist/,52,0,0
1687272101604,93,student courses id-1,200,OK,Parse Assignment Id 1-1,text,true,,1549,511,1,1,https://hansa.bodhi.cse.iitb.ac.in/courseware/instructor_courses_json/%20,93,0,0
1687272101734,71,assignment id-1,200,OK,Parse Assignment Id 1-1,text,true,,784,677,1,1,https://hansa.bodhi.cse.iitb.ac.in/courseware/api/course/%203/all_assignments/?format=json,71,0,0
1687272100895,526,Test-1,200,"Number of samples in transaction : 4, number of failing samples : 0",Parse Assignment Id 1-1,,true,,31767,3039,1,1,null,468,454,96
1687272101876,2,Debug Sampler-1,200,OK,Parse Assignment Id 1-1,text,true,,3740,0,1,1,null,0,0,0
1687272101883,60,CSRF-1,200,OK,clear exam histroy 2-1,text,true,,27507,379,1,1,https://hansa.bodhi.cse.iitb.ac.in/accounts/login/,58,0,8
1687272101944,190,LOGIN-1,200,OK,clear exam histroy 2-1,text,true,,1927,1472,1,1,https://hansa.bodhi.cse.iitb.ac.in/frontend/courseware/courseslist/,137,0,2
1687272101944,137,LOGIN-1-0,302,Found,clear exam histroy 2-1,text,true,,591,756,1,1,https://hansa.bodhi.cse.iitb.ac.in/accounts/login/,137,0,2
1687272102082,52,LOGIN-1-1,200,OK,clear exam histroy 2-1,text,true,,1336,716,1,1,https://hansa.bodhi.cse.iitb.ac.in/frontend/courseware/courseslist/,52,0,0
1687272102136,183,assignment 1 clear exam histroy-1,200,OK,clear exam histroy 2-1,text,true,,17340,1331,1,1,https://hansa.bodhi.cse.iitb.ac.in/assignments/exam/proctoring/3,64,0,0
1687272102136,64,assignment 1 clear exam histroy-1-0,302,Found,clear exam histroy 2-1,text,true,,323,667,1,1,https://hansa.bodhi.cse.iitb.ac.in/assignments/exam/proctor/clear/8,64,0,0
1687272102200,119,assignment 1 clear exam histroy-1-1,200,OK,clear exam histroy 2-1,text,true,,17017,664,1,1,https://hansa.bodhi.cse.iitb.ac.in/assignments/exam/proctoring/3,116,0,0
1687272102321,157,assignment 2 clear exam histroy-1,200,OK,clear exam histroy 2-1,text,true,,17346,1331,1,1,https://hansa.bodhi.cse.iitb.ac.in/assignments/exam/proctoring/3,51,0,0
1687272102321,51,assignment 2 clear exam histroy-1-0,302,Found,clear exam histroy 2-1,text,true,,323,667,1,1,https://hansa.bodhi.cse.iitb.ac.in/assignments/exam/proctor/clear/9,51,0,0
1687272102373,105,assignment 2 clear exam histroy-1-1,200,OK,clear exam histroy 2-1,text,true,,17023,664,1,1,https://hansa.bodhi.cse.iitb.ac.in/assignments/exam/proctoring/3,102,0,0
1687272102479,189,assignment 3 clear exam histroy-1,200,OK,clear exam histroy 2-1,text,true,,17340,1332,1,1,https://hansa.bodhi.cse.iitb.ac.in/assignments/exam/proctoring/3,67,0,0
1687272102479,67,assignment 3 clear exam histroy-1-0,302,Found,clear exam histroy 2-1,text,true,,323,668,1,1,https://hansa.bodhi.cse.iitb.ac.in/assignments/exam/proctor/clear/10,67,0,0
1687272102547,121,assignment 3 clear exam histroy-1-1,200,OK,clear exam histroy 2-1,text,true,,17017,664,1,1,https://hansa.bodhi.cse.iitb.ac.in/assignments/exam/proctoring/3,118,0,0
1687272102669,1,Debug Sampler,200,OK,clear exam histroy 2-1,text,true,,4871,0,1,1,null,0,0,0
1687272102686,169,CSRF-1,200,OK,Assignment Setup 3-1,text,true,,27499,379,1,1,https://hansa.bodhi.cse.iitb.ac.in/accounts/login/,166,0,9
1687272102861,170,LOGIN-1,200,OK,Assignment Setup 3-1,text,true,,1927,1472,1,1,https://hansa.bodhi.cse.iitb.ac.in/frontend/courseware/courseslist/,119,0,8
1687272102861,119,LOGIN-1-0,302,Found,Assignment Setup 3-1,text,true,,591,756,1,1,https://hansa.bodhi.cse.iitb.ac.in/accounts/login/,119,0,8
1687272102981,50,LOGIN-1-1,200,OK,Assignment Setup 3-1,text,true,,1336,716,1,1,https://hansa.bodhi.cse.iitb.ac.in/frontend/courseware/courseslist/,50,0,0
1687272103033,403,Fetch Section Id-ASSIGNMENT1,200,OK,Assignment Setup 3-1,text,true,,53545,494,1,1,https://hansa.bodhi.cse.iitb.ac.in/assignments/details/8,398,0,0
1687272103437,460,Delete Sections,200,OK,Assignment Setup 3-1,text,true,,52131,972,1,1,https://hansa.bodhi.cse.iitb.ac.in/assignments/details/8,122,0,0
1687272103437,122,Delete Sections-0,302,Found,Assignment Setup 3-1,text,true,,329,491,1,1,https://hansa.bodhi.cse.iitb.ac.in/assignments/program/delete/2488,122,0,0
1687272103559,338,Delete Sections-1,200,OK,Assignment Setup 3-1,text,true,,51802,481,1,1,https://hansa.bodhi.cse.iitb.ac.in/assignments/details/8,333,0,0
1687272103899,409,Delete Sections,200,OK,Assignment Setup 3-1,text,true,,50837,972,1,1,https://hansa.bodhi.cse.iitb.ac.in/assignments/details/8,119,0,0
1687272103899,119,Delete Sections-0,302,Found,Assignment Setup 3-1,text,true,,329,491,1,1,https://hansa.bodhi.cse.iitb.ac.in/assignments/program/delete/2489,119,0,0
1687272104018,290,Delete Sections-1,200,OK,Assignment Setup 3-1,text,true,,50508,481,1,1,https://hansa.bodhi.cse.iitb.ac.in/assignments/details/8,286,0,0
1687272104310,338,Fetch Section Id-ASSIGNMENT2,200,OK,Assignment Setup 3-1,text,true,,53536,494,1,1,https://hansa.bodhi.cse.iitb.ac.in/assignments/details/9,333,0,0
1687272104649,448,Delete Sections,200,OK,Assignment Setup 3-1,text,true,,52129,972,1,1,https://hansa.bodhi.cse.iitb.ac.in/assignments/details/9,102,0,0
1687272104649,102,Delete Sections-0,302,Found,Assignment Setup 3-1,text,true,,329,491,1,1,https://hansa.bodhi.cse.iitb.ac.in/assignments/program/delete/2490,102,0,0
1687272104751,346,Delete Sections-1,200,OK,Assignment Setup 3-1,text,true,,51800,481,1,1,https://hansa.bodhi.cse.iitb.ac.in/assignments/details/9,341,0,0
1687272105098,433,Delete Sections,200,OK,Assignment Setup 3-1,text,true,,50833,972,1,1,https://hansa.bodhi.cse.iitb.ac.in/assignments/details/9,111,0,0
1687272105098,111,Delete Sections-0,302,Found,Assignment Setup 3-1,text,true,,329,491,1,1,https://hansa.bodhi.cse.iitb.ac.in/assignments/program/delete/2491,111,0,0
1687272105210,321,Delete Sections-1,200,OK,Assignment Setup 3-1,text,true,,50504,481,1,1,https://hansa.bodhi.cse.iitb.ac.in/assignments/details/9,316,0,0
1687272105534,377,Fetch Section Id-ASSIGNMENT3,200,OK,Assignment Setup 3-1,text,true,,53541,495,1,1,https://hansa.bodhi.cse.iitb.ac.in/assignments/details/10,373,0,0
1687272105914,473,Delete Sections,200,OK,Assignment Setup 3-1,text,true,,52153,973,1,1,https://hansa.bodhi.cse.iitb.ac.in/assignments/details/10,122,0,0
1687272105914,122,Delete Sections-0,302,Found,Assignment Setup 3-1,text,true,,330,491,1,1,https://hansa.bodhi.cse.iitb.ac.in/assignments/program/delete/2492,122,0,0
1687272106037,350,Delete Sections-1,200,OK,Assignment Setup 3-1,text,true,,51823,482,1,1,https://hansa.bodhi.cse.iitb.ac.in/assignments/details/10,345,0,0
1687272106389,436,Delete Sections,200,OK,Assignment Setup 3-1,text,true,,50850,973,1,1,https://hansa.bodhi.cse.iitb.ac.in/assignments/details/10,120,0,0
1687272106389,120,Delete Sections-0,302,Found,Assignment Setup 3-1,text,true,,330,491,1,1,https://hansa.bodhi.cse.iitb.ac.in/assignments/program/delete/2493,120,0,0
1687272106509,316,Delete Sections-1,200,OK,Assignment Setup 3-1,text,true,,50520,482,1,1,https://hansa.bodhi.cse.iitb.ac.in/assignments/details/10,311,0,0
1687272106830,10,JSR223 Sampler,200,OK,Assignment Setup 3-1,text,true,,16,0,1,1,null,0,0,0
1687272106841,1122,Modify Assignment1,200,OK,Assignment Setup 3-1,text,false,"In assignment1, Deadline can not be before Publish date sp please edit it.",54061,13354,1,1,https://hansa.bodhi.cse.iitb.ac.in/assignments/details/8,787,0,0
1687272106841,787,Modify Assignment1-0,302,Found,Assignment Setup 3-1,text,true,,504,12550,1,1,https://hansa.bodhi.cse.iitb.ac.in/assignments/edit/8/1,787,0,0
1687272107629,334,Modify Assignment1-1,200,OK,Assignment Setup 3-1,text,true,,53557,804,1,1,https://hansa.bodhi.cse.iitb.ac.in/assignments/details/8,330,0,0
1687272107984,430,GET SOULTION CODE ID1,200,OK,Assignment Setup 3-1,text,true,,53890,1258,1,1,https://hansa.bodhi.cse.iitb.ac.in/assignments/details/8,76,0,0
1687272107984,76,GET SOULTION CODE ID1-0,302,Found,Assignment Setup 3-1,text,true,,329,629,1,1,https://hansa.bodhi.cse.iitb.ac.in/assignments/publish/8,76,0,0
1687272108061,353,GET SOULTION CODE ID1-1,200,OK,Assignment Setup 3-1,text,true,,53561,629,1,1,https://hansa.bodhi.cse.iitb.ac.in/assignments/details/8,349,0,0
1687272108435,470,PUBLIC A SOULTION CODE1,200,OK,Assignment Setup 3-1,text,true,,53885,1258,1,1,https://hansa.bodhi.cse.iitb.ac.in/assignments/details/8,101,0,0
1687272108435,101,PUBLIC A SOULTION CODE1-0,302,Found,Assignment Setup 3-1,text,true,,329,629,1,1,https://hansa.bodhi.cse.iitb.ac.in/assignments/publish/8,101,0,0
1687272108537,368,PUBLIC A SOULTION CODE1-1,200,OK,Assignment Setup 3-1,text,true,,53556,629,1,1,https://hansa.bodhi.cse.iitb.ac.in/assignments/details/8,364,0,0
1687272108906,1134,Modify Assignment2,200,OK,Assignment Setup 3-1,text,false,"In assignment1, Deadline can not be before Publish date sp please edit it.",53911,13436,1,1,https://hansa.bodhi.cse.iitb.ac.in/assignments/details/9,748,0,0
1687272108906,748,Modify Assignment2-0,302,Found,Assignment Setup 3-1,text,true,,504,12632,1,1,https://hansa.bodhi.cse.iitb.ac.in/assignments/edit/9/1,748,0,0
1687272109655,385,Modify Assignment2-1,200,OK,Assignment Setup 3-1,text,true,,53407,804,1,1,https://hansa.bodhi.cse.iitb.ac.in/assignments/details/9,381,0,0
1687272110062,473,GET SOULTION CODE ID2,200,OK,Assignment Setup 3-1,text,true,,53739,1258,1,1,https://hansa.bodhi.cse.iitb.ac.in/assignments/details/9,90,0,0
1687272110062,90,GET SOULTION CODE ID2-0,302,Found,Assignment Setup 3-1,text,true,,329,629,1,1,https://hansa.bodhi.cse.iitb.ac.in/assignments/publish/9,90,0,0
1687272110153,382,GET SOULTION CODE ID2-1,200,OK,Assignment Setup 3-1,text,true,,53410,629,1,1,https://hansa.bodhi.cse.iitb.ac.in/assignments/details/9,378,0,0
1687272110541,1043,Modify Assignment3,200,OK,Assignment Setup 3-1,text,false,"In assignment1, Deadline can not be before Publish date sp please edit it.",53917,13414,1,1,https://hansa.bodhi.cse.iitb.ac.in/assignments/details/10,686,0,0
1687272110541,686,Modify Assignment3-0,302,Found,Assignment Setup 3-1,text,true,,514,12600,1,1,https://hansa.bodhi.cse.iitb.ac.in/assignments/edit/10/1,686,0,0
1687272111228,356,Modify Assignment3-1,200,OK,Assignment Setup 3-1,text,true,,53403,814,1,1,https://hansa.bodhi.cse.iitb.ac.in/assignments/details/10,353,0,0
1687272111588,450,GET SOULTION CODE ID3,200,OK,Assignment Setup 3-1,text,true,,53734,1278,1,1,https://hansa.bodhi.cse.iitb.ac.in/assignments/details/10,91,0,0
1687272111588,91,GET SOULTION CODE ID3-0,302,Found,Assignment Setup 3-1,text,true,,330,639,1,1,https://hansa.bodhi.cse.iitb.ac.in/assignments/publish/10,91,0,0
1687272111679,359,GET SOULTION CODE ID3-1,200,OK,Assignment Setup 3-1,text,true,,53404,639,1,1,https://hansa.bodhi.cse.iitb.ac.in/assignments/details/10,355,0,0
1687272112050,1,Debug Sampler,200,OK,Assignment Setup 3-1,text,true,,7622,0,1,1,null,0,0,0
