timeStamp,elapsed,label,responseCode,responseMessage,threadName,dataType,success,failureMessage,bytes,sentBytes,grpThreads,allThreads,URL,Latency,IdleTime,Connect
1687601718112,178,CSRF-1,200,OK,Parse Assignment Id 1-1,text,true,,27499,379,1,1,https://hansa.bodhi.cse.iitb.ac.in/accounts/login/,174,0,90
1687601718292,166,LOGIN-1,200,OK,Parse Assignment Id 1-1,text,true,,1927,1472,1,1,https://hansa.bodhi.cse.iitb.ac.in/frontend/courseware/courseslist/,115,0,4
1687601718292,115,LOGIN-1-0,302,Found,Parse Assignment Id 1-1,text,true,,591,756,1,1,https://hansa.bodhi.cse.iitb.ac.in/accounts/login/,115,0,4
1687601718411,47,LOGIN-1-1,200,OK,Parse Assignment Id 1-1,text,true,,1336,716,1,1,https://hansa.bodhi.cse.iitb.ac.in/frontend/courseware/courseslist/,47,0,0
1687601718746,81,student courses id-1,200,OK,Parse Assignment Id 1-1,text,true,,1549,511,1,1,https://hansa.bodhi.cse.iitb.ac.in/courseware/instructor_courses_json/%20,81,0,0
1687601718840,68,assignment id-1,200,OK,Parse Assignment Id 1-1,text,true,,784,677,1,1,https://hansa.bodhi.cse.iitb.ac.in/courseware/api/course/%203/all_assignments/?format=json,68,0,0
1687601718080,493,Test-1,200,"Number of samples in transaction : 4, number of failing samples : 0",Parse Assignment Id 1-1,,true,,31759,3039,1,1,null,438,357,94
1687601718931,1,Debug Sampler-1,200,OK,Parse Assignment Id 1-1,text,true,,3893,0,1,1,null,0,0,0
1687601718936,59,CSRF-1,200,OK,clear exam histroy 2-1,text,true,,27499,379,1,1,https://hansa.bodhi.cse.iitb.ac.in/accounts/login/,57,0,7
1687601718996,160,LOGIN-1,200,OK,clear exam histroy 2-1,text,true,,1927,1472,1,1,https://hansa.bodhi.cse.iitb.ac.in/frontend/courseware/courseslist/,111,0,3
1687601718996,111,LOGIN-1-0,302,Found,clear exam histroy 2-1,text,true,,591,756,1,1,https://hansa.bodhi.cse.iitb.ac.in/accounts/login/,111,0,3
1687601719109,47,LOGIN-1-1,200,OK,clear exam histroy 2-1,text,true,,1336,716,1,1,https://hansa.bodhi.cse.iitb.ac.in/frontend/courseware/courseslist/,46,0,0
1687601719158,147,assignment 1 clear exam histroy-1,200,OK,clear exam histroy 2-1,text,true,,17340,1331,1,1,https://hansa.bodhi.cse.iitb.ac.in/assignments/exam/proctoring/3,46,0,0
1687601719158,46,assignment 1 clear exam histroy-1-0,302,Found,clear exam histroy 2-1,text,true,,323,667,1,1,https://hansa.bodhi.cse.iitb.ac.in/assignments/exam/proctor/clear/8,46,0,0
1687601719205,100,assignment 1 clear exam histroy-1-1,200,OK,clear exam histroy 2-1,text,true,,17017,664,1,1,https://hansa.bodhi.cse.iitb.ac.in/assignments/exam/proctoring/3,98,0,0
1687601719307,151,assignment 2 clear exam histroy-1,200,OK,clear exam histroy 2-1,text,true,,17341,1331,1,1,https://hansa.bodhi.cse.iitb.ac.in/assignments/exam/proctoring/3,46,0,0
1687601719307,46,assignment 2 clear exam histroy-1-0,302,Found,clear exam histroy 2-1,text,true,,323,667,1,1,https://hansa.bodhi.cse.iitb.ac.in/assignments/exam/proctor/clear/9,46,0,0
1687601719354,104,assignment 2 clear exam histroy-1-1,200,OK,clear exam histroy 2-1,text,true,,17018,664,1,1,https://hansa.bodhi.cse.iitb.ac.in/assignments/exam/proctoring/3,102,0,0
1687601719460,156,assignment 3 clear exam histroy-1,200,OK,clear exam histroy 2-1,text,true,,17340,1332,1,1,https://hansa.bodhi.cse.iitb.ac.in/assignments/exam/proctoring/3,50,0,0
1687601719460,50,assignment 3 clear exam histroy-1-0,302,Found,clear exam histroy 2-1,text,true,,323,668,1,1,https://hansa.bodhi.cse.iitb.ac.in/assignments/exam/proctor/clear/10,50,0,0
1687601719510,106,assignment 3 clear exam histroy-1-1,200,OK,clear exam histroy 2-1,text,true,,17017,664,1,1,https://hansa.bodhi.cse.iitb.ac.in/assignments/exam/proctoring/3,104,0,0
1687601719617,2,Debug Sampler,200,OK,clear exam histroy 2-1,text,true,,6456,0,1,1,null,0,0,0
1687601719632,55,CSRF-1,200,OK,Assignment Setup 3-1,text,true,,27500,379,1,1,https://hansa.bodhi.cse.iitb.ac.in/accounts/login/,53,0,7
1687601719688,153,LOGIN-1,200,OK,Assignment Setup 3-1,text,true,,1927,1472,1,1,https://hansa.bodhi.cse.iitb.ac.in/frontend/courseware/courseslist/,110,0,3
1687601719688,110,LOGIN-1-0,302,Found,Assignment Setup 3-1,text,true,,591,756,1,1,https://hansa.bodhi.cse.iitb.ac.in/accounts/login/,110,0,3
1687601719799,42,LOGIN-1-1,200,OK,Assignment Setup 3-1,text,true,,1336,716,1,1,https://hansa.bodhi.cse.iitb.ac.in/frontend/courseware/courseslist/,42,0,0
1687601719844,305,Fetch Section Id-ASSIGNMENT1,200,OK,Assignment Setup 3-1,text,true,,50322,494,1,1,https://hansa.bodhi.cse.iitb.ac.in/assignments/details/8,301,0,0
1687601720150,447,Fetch Section Id-ASSIGNMENT2,200,OK,Assignment Setup 3-1,text,true,,53345,494,1,1,https://hansa.bodhi.cse.iitb.ac.in/assignments/details/9,441,0,0
1687601720600,443,Delete Sections,200,OK,Assignment Setup 3-1,text,true,,51944,972,1,1,https://hansa.bodhi.cse.iitb.ac.in/assignments/details/9,102,0,0
1687601720600,103,Delete Sections-0,302,Found,Assignment Setup 3-1,text,true,,329,491,1,1,https://hansa.bodhi.cse.iitb.ac.in/assignments/program/delete/2830,102,0,0
1687601720703,340,Delete Sections-1,200,OK,Assignment Setup 3-1,text,true,,51615,481,1,1,https://hansa.bodhi.cse.iitb.ac.in/assignments/details/9,335,0,0
1687601721045,419,Delete Sections,200,OK,Assignment Setup 3-1,text,true,,50649,972,1,1,https://hansa.bodhi.cse.iitb.ac.in/assignments/details/9,107,0,0
1687601721045,107,Delete Sections-0,302,Found,Assignment Setup 3-1,text,true,,329,491,1,1,https://hansa.bodhi.cse.iitb.ac.in/assignments/program/delete/2831,107,0,0
1687601721152,312,Delete Sections-1,200,OK,Assignment Setup 3-1,text,true,,50320,481,1,1,https://hansa.bodhi.cse.iitb.ac.in/assignments/details/9,307,0,0
1687601721464,491,Fetch Section Id-ASSIGNMENT3,200,OK,Assignment Setup 3-1,text,true,,53370,495,1,1,https://hansa.bodhi.cse.iitb.ac.in/assignments/details/10,487,0,0
1687601721957,512,Delete Sections,200,OK,Assignment Setup 3-1,text,true,,51961,973,1,1,https://hansa.bodhi.cse.iitb.ac.in/assignments/details/10,131,0,0
1687601721957,131,Delete Sections-0,302,Found,Assignment Setup 3-1,text,true,,330,491,1,1,https://hansa.bodhi.cse.iitb.ac.in/assignments/program/delete/2832,131,0,0
1687601722089,380,Delete Sections-1,200,OK,Assignment Setup 3-1,text,true,,51631,482,1,1,https://hansa.bodhi.cse.iitb.ac.in/assignments/details/10,376,0,0
1687601722472,642,Delete Sections,200,OK,Assignment Setup 3-1,text,true,,50677,973,1,1,https://hansa.bodhi.cse.iitb.ac.in/assignments/details/10,298,0,0
1687601722472,298,Delete Sections-0,302,Found,Assignment Setup 3-1,text,true,,330,491,1,1,https://hansa.bodhi.cse.iitb.ac.in/assignments/program/delete/2833,298,0,0
1687601722771,343,Delete Sections-1,200,OK,Assignment Setup 3-1,text,true,,50347,482,1,1,https://hansa.bodhi.cse.iitb.ac.in/assignments/details/10,339,0,0
1687601723121,12,JSR223 Sampler,200,OK,Assignment Setup 3-1,text,true,,16,0,1,1,null,0,0,0
1687601723134,283,Modify Assignment1,200,OK,Assignment Setup 3-1,text,true,,52893,12552,1,1,https://hansa.bodhi.cse.iitb.ac.in/assignments/edit/8/1,279,0,0
1687601723441,509,GET SOULTION CODE ID1,200,OK,Assignment Setup 3-1,text,true,,50642,962,1,1,https://hansa.bodhi.cse.iitb.ac.in/assignments/details/8,78,0,0
1687601723441,78,GET SOULTION CODE ID1-0,302,Found,Assignment Setup 3-1,text,true,,329,481,1,1,https://hansa.bodhi.cse.iitb.ac.in/assignments/publish/8,78,0,0
1687601723519,431,GET SOULTION CODE ID1-1,200,OK,Assignment Setup 3-1,text,true,,50313,481,1,1,https://hansa.bodhi.cse.iitb.ac.in/assignments/details/8,427,0,0
1687601723964,490,PUBLIC A SOULTION CODE1,200,OK,Assignment Setup 3-1,text,true,,50637,962,1,1,https://hansa.bodhi.cse.iitb.ac.in/assignments/details/8,82,0,0
1687601723964,82,PUBLIC A SOULTION CODE1-0,302,Found,Assignment Setup 3-1,text,true,,329,481,1,1,https://hansa.bodhi.cse.iitb.ac.in/assignments/publish/8,82,0,0
1687601724046,408,PUBLIC A SOULTION CODE1-1,200,OK,Assignment Setup 3-1,text,true,,50308,481,1,1,https://hansa.bodhi.cse.iitb.ac.in/assignments/details/8,404,0,0
1687601724455,1034,Modify Assignment2,200,OK,Assignment Setup 3-1,text,true,,53667,13257,1,1,https://hansa.bodhi.cse.iitb.ac.in/assignments/details/9,690,0,0
1687601724455,690,Modify Assignment2-0,302,Found,Assignment Setup 3-1,text,true,,329,12601,1,1,https://hansa.bodhi.cse.iitb.ac.in/assignments/edit/9/1,690,0,0
1687601725146,343,Modify Assignment2-1,200,OK,Assignment Setup 3-1,text,true,,53338,656,1,1,https://hansa.bodhi.cse.iitb.ac.in/assignments/details/9,338,0,0
1687601725506,436,GET SOULTION CODE ID2,200,OK,Assignment Setup 3-1,text,true,,53665,962,1,1,https://hansa.bodhi.cse.iitb.ac.in/assignments/details/9,81,0,0
1687601725506,81,GET SOULTION CODE ID2-0,302,Found,Assignment Setup 3-1,text,true,,329,481,1,1,https://hansa.bodhi.cse.iitb.ac.in/assignments/publish/9,81,0,0
1687601725587,355,GET SOULTION CODE ID2-1,200,OK,Assignment Setup 3-1,text,true,,53336,481,1,1,https://hansa.bodhi.cse.iitb.ac.in/assignments/details/9,351,0,0
1687601725952,1117,Modify Assignment3,200,OK,Assignment Setup 3-1,text,true,,53706,13160,1,1,https://hansa.bodhi.cse.iitb.ac.in/assignments/details/10,737,0,0
1687601725952,737,Modify Assignment3-0,302,Found,Assignment Setup 3-1,text,true,,330,12503,1,1,https://hansa.bodhi.cse.iitb.ac.in/assignments/edit/10/1,737,0,0
1687601726690,379,Modify Assignment3-1,200,OK,Assignment Setup 3-1,text,true,,53376,657,1,1,https://hansa.bodhi.cse.iitb.ac.in/assignments/details/10,375,0,0
1687601727072,465,GET SOULTION CODE ID3,200,OK,Assignment Setup 3-1,text,true,,53684,964,1,1,https://hansa.bodhi.cse.iitb.ac.in/assignments/details/10,83,0,0
1687601727072,83,GET SOULTION CODE ID3-0,302,Found,Assignment Setup 3-1,text,true,,330,482,1,1,https://hansa.bodhi.cse.iitb.ac.in/assignments/publish/10,83,0,0
1687601727155,382,GET SOULTION CODE ID3-1,200,OK,Assignment Setup 3-1,text,true,,53354,482,1,1,https://hansa.bodhi.cse.iitb.ac.in/assignments/details/10,378,0,0
1687601727547,1,Debug Sampler,200,OK,Assignment Setup 3-1,text,true,,7235,0,1,1,null,0,0,0
