timeStamp,elapsed,label,responseCode,responseMessage,threadName,dataType,success,failureMessage,bytes,sentBytes,grpThreads,allThreads,URL,Latency,IdleTime,Connect
1687601647596,147,CSRF-1,200,OK,Parse Assignment Id 1-1,text,true,,27498,379,1,1,https://hansa.bodhi.cse.iitb.ac.in/accounts/login/,144,0,91
1687601647746,183,LOGIN-1,200,OK,Parse Assignment Id 1-1,text,true,,1927,1472,1,1,https://hansa.bodhi.cse.iitb.ac.in/frontend/courseware/courseslist/,127,0,4
1687601647746,127,LOGIN-1-0,302,Found,Parse Assignment Id 1-1,text,true,,591,756,1,1,https://hansa.bodhi.cse.iitb.ac.in/accounts/login/,127,0,4
1687601647877,52,LOGIN-1-1,200,OK,Parse Assignment Id 1-1,text,true,,1336,716,1,1,https://hansa.bodhi.cse.iitb.ac.in/frontend/courseware/courseslist/,52,0,0
1687601648224,86,student courses id-1,200,OK,Parse Assignment Id 1-1,text,true,,1549,511,1,1,https://hansa.bodhi.cse.iitb.ac.in/courseware/instructor_courses_json/%20,86,0,0
1687601648323,71,assignment id-1,200,OK,Parse Assignment Id 1-1,text,true,,784,677,1,1,https://hansa.bodhi.cse.iitb.ac.in/courseware/api/course/%203/all_assignments/?format=json,70,0,0
1687601647567,487,Test-1,200,"Number of samples in transaction : 4, number of failing samples : 0",Parse Assignment Id 1-1,,true,,31758,3039,1,1,null,427,375,95
1687601648433,1,Debug Sampler-1,200,OK,Parse Assignment Id 1-1,text,true,,3912,0,1,1,null,0,0,0
1687601648438,55,CSRF-1,200,OK,clear exam histroy 2-1,text,true,,27507,379,1,1,https://hansa.bodhi.cse.iitb.ac.in/accounts/login/,53,0,8
1687601648494,159,LOGIN-1,200,OK,clear exam histroy 2-1,text,true,,1927,1472,1,1,https://hansa.bodhi.cse.iitb.ac.in/frontend/courseware/courseslist/,112,0,2
1687601648494,112,LOGIN-1-0,302,Found,clear exam histroy 2-1,text,true,,591,756,1,1,https://hansa.bodhi.cse.iitb.ac.in/accounts/login/,112,0,2
1687601648607,46,LOGIN-1-1,200,OK,clear exam histroy 2-1,text,true,,1336,716,1,1,https://hansa.bodhi.cse.iitb.ac.in/frontend/courseware/courseslist/,45,0,0
1687601648654,165,assignment 1 clear exam histroy-1,200,OK,clear exam histroy 2-1,text,true,,17340,1331,1,1,https://hansa.bodhi.cse.iitb.ac.in/assignments/exam/proctoring/3,63,0,0
1687601648654,63,assignment 1 clear exam histroy-1-0,302,Found,clear exam histroy 2-1,text,true,,323,667,1,1,https://hansa.bodhi.cse.iitb.ac.in/assignments/exam/proctor/clear/8,63,0,0
1687601648718,101,assignment 1 clear exam histroy-1-1,200,OK,clear exam histroy 2-1,text,true,,17017,664,1,1,https://hansa.bodhi.cse.iitb.ac.in/assignments/exam/proctoring/3,99,0,0
1687601648821,162,assignment 2 clear exam histroy-1,200,OK,clear exam histroy 2-1,text,true,,17340,1331,1,1,https://hansa.bodhi.cse.iitb.ac.in/assignments/exam/proctoring/3,52,0,0
1687601648821,52,assignment 2 clear exam histroy-1-0,302,Found,clear exam histroy 2-1,text,true,,323,667,1,1,https://hansa.bodhi.cse.iitb.ac.in/assignments/exam/proctor/clear/9,52,0,0
1687601648873,110,assignment 2 clear exam histroy-1-1,200,OK,clear exam histroy 2-1,text,true,,17017,664,1,1,https://hansa.bodhi.cse.iitb.ac.in/assignments/exam/proctoring/3,108,0,0
1687601648985,155,assignment 3 clear exam histroy-1,200,OK,clear exam histroy 2-1,text,true,,17340,1332,1,1,https://hansa.bodhi.cse.iitb.ac.in/assignments/exam/proctoring/3,47,0,0
1687601648985,47,assignment 3 clear exam histroy-1-0,302,Found,clear exam histroy 2-1,text,true,,323,668,1,1,https://hansa.bodhi.cse.iitb.ac.in/assignments/exam/proctor/clear/10,47,0,0
1687601649033,107,assignment 3 clear exam histroy-1-1,200,OK,clear exam histroy 2-1,text,true,,17017,664,1,1,https://hansa.bodhi.cse.iitb.ac.in/assignments/exam/proctoring/3,105,0,0
1687601649141,2,Debug Sampler,200,OK,clear exam histroy 2-1,text,true,,6869,0,1,1,null,0,0,0
1687601649155,59,CSRF-1,200,OK,Assignment Setup 3-1,text,true,,27505,379,1,1,https://hansa.bodhi.cse.iitb.ac.in/accounts/login/,57,0,9
1687601649220,156,LOGIN-1,200,OK,Assignment Setup 3-1,text,true,,1927,1472,1,1,https://hansa.bodhi.cse.iitb.ac.in/frontend/courseware/courseslist/,102,0,6
1687601649220,102,LOGIN-1-0,302,Found,Assignment Setup 3-1,text,true,,591,756,1,1,https://hansa.bodhi.cse.iitb.ac.in/accounts/login/,102,0,6
1687601649323,53,LOGIN-1-1,200,OK,Assignment Setup 3-1,text,true,,1336,716,1,1,https://hansa.bodhi.cse.iitb.ac.in/frontend/courseware/courseslist/,52,0,0
1687601649378,383,Fetch Section Id-ASSIGNMENT1,200,OK,Assignment Setup 3-1,text,true,,53346,494,1,1,https://hansa.bodhi.cse.iitb.ac.in/assignments/details/8,378,0,0
1687601649762,578,Delete Sections,200,OK,Assignment Setup 3-1,text,true,,51945,972,1,1,https://hansa.bodhi.cse.iitb.ac.in/assignments/details/8,215,0,0
1687601649762,215,Delete Sections-0,302,Found,Assignment Setup 3-1,text,true,,329,491,1,1,https://hansa.bodhi.cse.iitb.ac.in/assignments/program/delete/2800,215,0,0
1687601649978,362,Delete Sections-1,200,OK,Assignment Setup 3-1,text,true,,51616,481,1,1,https://hansa.bodhi.cse.iitb.ac.in/assignments/details/8,359,0,0
1687601650341,549,Delete Sections,200,OK,Assignment Setup 3-1,text,true,,50650,972,1,1,https://hansa.bodhi.cse.iitb.ac.in/assignments/details/8,127,0,0
1687601650341,127,Delete Sections-0,302,Found,Assignment Setup 3-1,text,true,,329,491,1,1,https://hansa.bodhi.cse.iitb.ac.in/assignments/program/delete/2801,127,0,0
1687601650469,421,Delete Sections-1,200,OK,Assignment Setup 3-1,text,true,,50321,481,1,1,https://hansa.bodhi.cse.iitb.ac.in/assignments/details/8,417,0,0
1687601650892,470,Fetch Section Id-ASSIGNMENT2,200,OK,Assignment Setup 3-1,text,true,,53343,494,1,1,https://hansa.bodhi.cse.iitb.ac.in/assignments/details/9,465,0,0
1687601651363,432,Delete Sections,200,OK,Assignment Setup 3-1,text,true,,51949,972,1,1,https://hansa.bodhi.cse.iitb.ac.in/assignments/details/9,116,0,0
1687601651363,116,Delete Sections-0,302,Found,Assignment Setup 3-1,text,true,,329,491,1,1,https://hansa.bodhi.cse.iitb.ac.in/assignments/program/delete/2802,116,0,0
1687601651480,315,Delete Sections-1,200,OK,Assignment Setup 3-1,text,true,,51620,481,1,1,https://hansa.bodhi.cse.iitb.ac.in/assignments/details/9,311,0,0
1687601651797,408,Delete Sections,200,OK,Assignment Setup 3-1,text,true,,50647,972,1,1,https://hansa.bodhi.cse.iitb.ac.in/assignments/details/9,122,0,0
1687601651797,122,Delete Sections-0,302,Found,Assignment Setup 3-1,text,true,,329,491,1,1,https://hansa.bodhi.cse.iitb.ac.in/assignments/program/delete/2803,122,0,0
1687601651919,286,Delete Sections-1,200,OK,Assignment Setup 3-1,text,true,,50318,481,1,1,https://hansa.bodhi.cse.iitb.ac.in/assignments/details/9,281,0,0
1687601652207,393,Fetch Section Id-ASSIGNMENT3,200,OK,Assignment Setup 3-1,text,true,,53360,495,1,1,https://hansa.bodhi.cse.iitb.ac.in/assignments/details/10,388,0,0
1687601652603,431,Delete Sections,200,OK,Assignment Setup 3-1,text,true,,51966,973,1,1,https://hansa.bodhi.cse.iitb.ac.in/assignments/details/10,99,0,0
1687601652603,99,Delete Sections-0,302,Found,Assignment Setup 3-1,text,true,,330,491,1,1,https://hansa.bodhi.cse.iitb.ac.in/assignments/program/delete/2804,99,0,0
1687601652703,331,Delete Sections-1,200,OK,Assignment Setup 3-1,text,true,,51636,482,1,1,https://hansa.bodhi.cse.iitb.ac.in/assignments/details/10,327,0,0
1687601653036,430,Delete Sections,200,OK,Assignment Setup 3-1,text,true,,50663,973,1,1,https://hansa.bodhi.cse.iitb.ac.in/assignments/details/10,127,0,0
1687601653036,127,Delete Sections-0,302,Found,Assignment Setup 3-1,text,true,,330,491,1,1,https://hansa.bodhi.cse.iitb.ac.in/assignments/program/delete/2805,127,0,0
1687601653164,302,Delete Sections-1,200,OK,Assignment Setup 3-1,text,true,,50333,482,1,1,https://hansa.bodhi.cse.iitb.ac.in/assignments/details/10,298,0,0
1687601653472,13,JSR223 Sampler,200,OK,Assignment Setup 3-1,text,true,,16,0,1,1,null,0,0,0
1687601653486,1140,Modify Assignment1,200,OK,Assignment Setup 3-1,text,true,,53668,13389,1,1,https://hansa.bodhi.cse.iitb.ac.in/assignments/details/8,773,0,0
1687601653486,773,Modify Assignment1-0,302,Found,Assignment Setup 3-1,text,true,,329,12733,1,1,https://hansa.bodhi.cse.iitb.ac.in/assignments/edit/8/1,773,0,0
1687601654260,366,Modify Assignment1-1,200,OK,Assignment Setup 3-1,text,true,,53339,656,1,1,https://hansa.bodhi.cse.iitb.ac.in/assignments/details/8,362,0,0
1687601654646,440,GET SOULTION CODE ID1,200,OK,Assignment Setup 3-1,text,true,,53672,962,1,1,https://hansa.bodhi.cse.iitb.ac.in/assignments/details/8,82,0,0
1687601654646,82,GET SOULTION CODE ID1-0,302,Found,Assignment Setup 3-1,text,true,,329,481,1,1,https://hansa.bodhi.cse.iitb.ac.in/assignments/publish/8,82,0,0
1687601654729,357,GET SOULTION CODE ID1-1,200,OK,Assignment Setup 3-1,text,true,,53343,481,1,1,https://hansa.bodhi.cse.iitb.ac.in/assignments/details/8,353,0,0
1687601655095,588,PUBLIC A SOULTION CODE1,200,OK,Assignment Setup 3-1,text,true,,53682,962,1,1,https://hansa.bodhi.cse.iitb.ac.in/assignments/details/8,225,0,0
1687601655095,225,PUBLIC A SOULTION CODE1-0,302,Found,Assignment Setup 3-1,text,true,,329,481,1,1,https://hansa.bodhi.cse.iitb.ac.in/assignments/publish/8,225,0,0
1687601655321,362,PUBLIC A SOULTION CODE1-1,200,OK,Assignment Setup 3-1,text,true,,53353,481,1,1,https://hansa.bodhi.cse.iitb.ac.in/assignments/details/8,358,0,0
1687601655684,1154,Modify Assignment2,200,OK,Assignment Setup 3-1,text,true,,53678,13455,1,1,https://hansa.bodhi.cse.iitb.ac.in/assignments/details/9,759,0,0
1687601655684,759,Modify Assignment2-0,302,Found,Assignment Setup 3-1,text,true,,329,12799,1,1,https://hansa.bodhi.cse.iitb.ac.in/assignments/edit/9/1,759,0,0
1687601656444,394,Modify Assignment2-1,200,OK,Assignment Setup 3-1,text,true,,53349,656,1,1,https://hansa.bodhi.cse.iitb.ac.in/assignments/details/9,390,0,0
1687601656875,452,GET SOULTION CODE ID2,200,OK,Assignment Setup 3-1,text,true,,53674,962,1,1,https://hansa.bodhi.cse.iitb.ac.in/assignments/details/9,104,0,0
1687601656875,104,GET SOULTION CODE ID2-0,302,Found,Assignment Setup 3-1,text,true,,329,481,1,1,https://hansa.bodhi.cse.iitb.ac.in/assignments/publish/9,104,0,0
1687601656979,348,GET SOULTION CODE ID2-1,200,OK,Assignment Setup 3-1,text,true,,53345,481,1,1,https://hansa.bodhi.cse.iitb.ac.in/assignments/details/9,340,0,0
1687601657337,1037,Modify Assignment3,200,OK,Assignment Setup 3-1,text,true,,53691,13457,1,1,https://hansa.bodhi.cse.iitb.ac.in/assignments/details/10,697,0,0
1687601657337,698,Modify Assignment3-0,302,Found,Assignment Setup 3-1,text,true,,330,12800,1,1,https://hansa.bodhi.cse.iitb.ac.in/assignments/edit/10/1,697,0,0
1687601658035,339,Modify Assignment3-1,200,OK,Assignment Setup 3-1,text,true,,53361,657,1,1,https://hansa.bodhi.cse.iitb.ac.in/assignments/details/10,335,0,0
1687601658381,443,GET SOULTION CODE ID3,200,OK,Assignment Setup 3-1,text,true,,53693,964,1,1,https://hansa.bodhi.cse.iitb.ac.in/assignments/details/10,90,0,0
1687601658381,90,GET SOULTION CODE ID3-0,302,Found,Assignment Setup 3-1,text,true,,330,482,1,1,https://hansa.bodhi.cse.iitb.ac.in/assignments/publish/10,90,0,0
1687601658472,352,GET SOULTION CODE ID3-1,200,OK,Assignment Setup 3-1,text,true,,53363,482,1,1,https://hansa.bodhi.cse.iitb.ac.in/assignments/details/10,348,0,0
1687601658833,1,Debug Sampler,200,OK,Assignment Setup 3-1,text,true,,7648,0,1,1,null,0,0,0
1687601658842,57,CSRF-1,200,OK,Student1 valid ip1 open section page 4-1,text,true,,27506,379,1,1,https://hansa.bodhi.cse.iitb.ac.in/accounts/login/,55,0,6
1687601658902,172,LOGIN assignment 1 by user number -1,200,OK,Student1 valid ip1 open section page 4-1,text,true,,1927,1486,1,1,https://hansa.bodhi.cse.iitb.ac.in/frontend/courseware/courseslist/,123,0,7
1687601658902,123,LOGIN assignment 1 by user number -1-0,302,Found,Student1 valid ip1 open section page 4-1,text,true,,591,770,1,1,https://hansa.bodhi.cse.iitb.ac.in/accounts/login/,123,0,7
1687601659026,48,LOGIN assignment 1 by user number -1-1,200,OK,Student1 valid ip1 open section page 4-1,text,true,,1336,716,1,1,https://hansa.bodhi.cse.iitb.ac.in/frontend/courseware/courseslist/,48,0,0
1687601659100,0,BeanShell Sampler,200,OK,Student1 valid ip1 open section page 4-1,text,true,,0,0,1,1,null,0,0,0
1687601659100,391,OPEN ASSIGNMENT 1 by user number-1,200,OK,Student1 valid ip1 open section page 4-1,text,true,,37401,494,1,1,https://hansa.bodhi.cse.iitb.ac.in/assignments/details/8,388,0,0
1687601659493,243,OPEN SECTION PAGE-1,200,OK,Student1 valid ip1 open section page 4-1,text,true,,42076,505,1,1,https://hansa.bodhi.cse.iitb.ac.in/assignments/program/details/2806,240,0,0
1687601658841,863,Test,200,"Number of samples in transaction : 5, number of failing samples : 0",Student1 valid ip1 open section page 4-1,,true,,108910,2864,1,1,null,806,35,13
1687601659739,2,Debug Sampler,200,OK,Student1 valid ip1 open section page 4-1,text,true,,3651,0,1,1,null,0,0,0
1687601659748,62,CSRF-1,200,OK,Student2 valid ip2 open section page of student1 5-1,text,true,,27512,379,1,1,https://hansa.bodhi.cse.iitb.ac.in/accounts/login/,60,0,10
1687601659812,162,LOGIN assignment 1 by user number -1,200,OK,Student2 valid ip2 open section page of student1 5-1,text,true,,1927,1486,1,1,https://hansa.bodhi.cse.iitb.ac.in/frontend/courseware/courseslist/,114,0,6
1687601659812,114,LOGIN assignment 1 by user number -1-0,302,Found,Student2 valid ip2 open section page of student1 5-1,text,true,,591,770,1,1,https://hansa.bodhi.cse.iitb.ac.in/accounts/login/,114,0,6
1687601659927,47,LOGIN assignment 1 by user number -1-1,200,OK,Student2 valid ip2 open section page of student1 5-1,text,true,,1336,716,1,1,https://hansa.bodhi.cse.iitb.ac.in/frontend/courseware/courseslist/,47,0,0
1687601659977,224,OPEN SECTION PAGE-1,200,OK,Student2 valid ip2 open section page of student1 5-1,text,true,,42076,505,1,1,https://hansa.bodhi.cse.iitb.ac.in/assignments/program/details/2806,221,0,0
1687601659746,448,Test,200,"Number of samples in transaction : 3, number of failing samples : 0",Student2 valid ip2 open section page of student1 5-1,,true,,71515,2370,1,1,null,395,10,16
1687601660204,1,Debug Sampler,200,OK,Student2 valid ip2 open section page of student1 5-1,text,true,,3198,0,1,1,null,0,0,0
