timeStamp,elapsed,label,responseCode,responseMessage,threadName,dataType,success,failureMessage,bytes,sentBytes,grpThreads,allThreads,URL,Latency,IdleTime,Connect
1687600922864,141,CSRF-1,200,OK,Parse Assignment Id 1-1,text,true,,27499,379,1,1,https://hansa.bodhi.cse.iitb.ac.in/accounts/login/,139,0,88
1687600923009,156,LOGIN-1,200,OK,Parse Assignment Id 1-1,text,true,,1927,1472,1,1,https://hansa.bodhi.cse.iitb.ac.in/frontend/courseware/courseslist/,103,0,4
1687600923009,103,LOGIN-1-0,302,Found,Parse Assignment Id 1-1,text,true,,591,756,1,1,https://hansa.bodhi.cse.iitb.ac.in/accounts/login/,103,0,4
1687600923117,48,LOGIN-1-1,200,OK,Parse Assignment Id 1-1,text,true,,1336,716,1,1,https://hansa.bodhi.cse.iitb.ac.in/frontend/courseware/courseslist/,48,0,0
1687600923474,84,student courses id-1,200,OK,Parse Assignment Id 1-1,text,true,,1549,511,1,1,https://hansa.bodhi.cse.iitb.ac.in/courseware/instructor_courses_json/%20,84,0,0
1687600923572,75,assignment id-1,200,OK,Parse Assignment Id 1-1,text,true,,784,677,1,1,https://hansa.bodhi.cse.iitb.ac.in/courseware/api/course/%203/all_assignments/?format=json,74,0,0
1687600922834,456,Test-1,200,"Number of samples in transaction : 4, number of failing samples : 0",Parse Assignment Id 1-1,,true,,31759,3039,1,1,null,400,392,92
1687600923683,2,Debug Sampler-1,200,OK,Parse Assignment Id 1-1,text,true,,3931,0,1,1,null,0,0,0
1687600923689,60,CSRF-1,200,OK,clear exam histroy 2-1,text,true,,27498,379,1,1,https://hansa.bodhi.cse.iitb.ac.in/accounts/login/,58,0,8
1687600923750,187,LOGIN-1,200,OK,clear exam histroy 2-1,text,true,,1927,1472,1,1,https://hansa.bodhi.cse.iitb.ac.in/frontend/courseware/courseslist/,138,0,4
1687600923750,138,LOGIN-1-0,302,Found,clear exam histroy 2-1,text,true,,591,756,1,1,https://hansa.bodhi.cse.iitb.ac.in/accounts/login/,138,0,4
1687600923889,48,LOGIN-1-1,200,OK,clear exam histroy 2-1,text,true,,1336,716,1,1,https://hansa.bodhi.cse.iitb.ac.in/frontend/courseware/courseslist/,48,0,0
1687600923939,160,assignment 1 clear exam histroy-1,200,OK,clear exam histroy 2-1,text,true,,17341,1331,1,1,https://hansa.bodhi.cse.iitb.ac.in/assignments/exam/proctoring/3,59,0,0
1687600923939,59,assignment 1 clear exam histroy-1-0,302,Found,clear exam histroy 2-1,text,true,,323,667,1,1,https://hansa.bodhi.cse.iitb.ac.in/assignments/exam/proctor/clear/8,59,0,0
1687600923999,100,assignment 1 clear exam histroy-1-1,200,OK,clear exam histroy 2-1,text,true,,17018,664,1,1,https://hansa.bodhi.cse.iitb.ac.in/assignments/exam/proctoring/3,98,0,0
1687600924101,169,assignment 2 clear exam histroy-1,200,OK,clear exam histroy 2-1,text,true,,17340,1331,1,1,https://hansa.bodhi.cse.iitb.ac.in/assignments/exam/proctoring/3,47,0,0
1687600924101,47,assignment 2 clear exam histroy-1-0,302,Found,clear exam histroy 2-1,text,true,,323,667,1,1,https://hansa.bodhi.cse.iitb.ac.in/assignments/exam/proctor/clear/9,47,0,0
1687600924149,121,assignment 2 clear exam histroy-1-1,200,OK,clear exam histroy 2-1,text,true,,17017,664,1,1,https://hansa.bodhi.cse.iitb.ac.in/assignments/exam/proctoring/3,120,0,0
1687600924270,144,assignment 3 clear exam histroy-1,200,OK,clear exam histroy 2-1,text,true,,17340,1332,1,1,https://hansa.bodhi.cse.iitb.ac.in/assignments/exam/proctoring/3,51,0,0
1687600924270,51,assignment 3 clear exam histroy-1-0,302,Found,clear exam histroy 2-1,text,true,,323,668,1,1,https://hansa.bodhi.cse.iitb.ac.in/assignments/exam/proctor/clear/10,51,0,0
1687600924322,92,assignment 3 clear exam histroy-1-1,200,OK,clear exam histroy 2-1,text,true,,17017,664,1,1,https://hansa.bodhi.cse.iitb.ac.in/assignments/exam/proctoring/3,90,0,0
1687600924415,2,Debug Sampler,200,OK,clear exam histroy 2-1,text,true,,6889,0,1,1,null,0,0,0
1687600924423,64,CSRF-1,200,OK,Assignment Setup 3-1,text,true,,27498,379,1,1,https://hansa.bodhi.cse.iitb.ac.in/accounts/login/,62,0,6
1687600924490,162,LOGIN-1,200,OK,Assignment Setup 3-1,text,true,,1927,1472,1,1,https://hansa.bodhi.cse.iitb.ac.in/frontend/courseware/courseslist/,114,0,3
1687600924490,114,LOGIN-1-0,302,Found,Assignment Setup 3-1,text,true,,591,756,1,1,https://hansa.bodhi.cse.iitb.ac.in/accounts/login/,114,0,3
1687600924605,47,LOGIN-1-1,200,OK,Assignment Setup 3-1,text,true,,1336,716,1,1,https://hansa.bodhi.cse.iitb.ac.in/frontend/courseware/courseslist/,46,0,0
1687600924654,374,Fetch Section Id-ASSIGNMENT1,200,OK,Assignment Setup 3-1,text,true,,53346,494,1,1,https://hansa.bodhi.cse.iitb.ac.in/assignments/details/8,369,0,0
1687600925030,436,Delete Sections,200,OK,Assignment Setup 3-1,text,true,,51938,972,1,1,https://hansa.bodhi.cse.iitb.ac.in/assignments/details/8,85,0,0
1687600925030,85,Delete Sections-0,302,Found,Assignment Setup 3-1,text,true,,329,491,1,1,https://hansa.bodhi.cse.iitb.ac.in/assignments/program/delete/2692,85,0,0
1687600925116,350,Delete Sections-1,200,OK,Assignment Setup 3-1,text,true,,51609,481,1,1,https://hansa.bodhi.cse.iitb.ac.in/assignments/details/8,345,0,0
1687600925467,426,Delete Sections,200,OK,Assignment Setup 3-1,text,true,,50649,972,1,1,https://hansa.bodhi.cse.iitb.ac.in/assignments/details/8,115,0,0
1687600925467,115,Delete Sections-0,302,Found,Assignment Setup 3-1,text,true,,329,491,1,1,https://hansa.bodhi.cse.iitb.ac.in/assignments/program/delete/2693,115,0,0
1687600925583,310,Delete Sections-1,200,OK,Assignment Setup 3-1,text,true,,50320,481,1,1,https://hansa.bodhi.cse.iitb.ac.in/assignments/details/8,306,0,0
1687600925894,352,Fetch Section Id-ASSIGNMENT2,200,OK,Assignment Setup 3-1,text,true,,53350,494,1,1,https://hansa.bodhi.cse.iitb.ac.in/assignments/details/9,347,0,0
1687600926247,469,Delete Sections,200,OK,Assignment Setup 3-1,text,true,,51949,972,1,1,https://hansa.bodhi.cse.iitb.ac.in/assignments/details/9,111,0,0
1687600926247,111,Delete Sections-0,302,Found,Assignment Setup 3-1,text,true,,329,491,1,1,https://hansa.bodhi.cse.iitb.ac.in/assignments/program/delete/2694,111,0,0
1687600926359,357,Delete Sections-1,200,OK,Assignment Setup 3-1,text,true,,51620,481,1,1,https://hansa.bodhi.cse.iitb.ac.in/assignments/details/9,353,0,0
1687600926718,389,Delete Sections,200,OK,Assignment Setup 3-1,text,true,,50647,972,1,1,https://hansa.bodhi.cse.iitb.ac.in/assignments/details/9,99,0,0
1687600926718,99,Delete Sections-0,302,Found,Assignment Setup 3-1,text,true,,329,491,1,1,https://hansa.bodhi.cse.iitb.ac.in/assignments/program/delete/2695,99,0,0
1687600926818,289,Delete Sections-1,200,OK,Assignment Setup 3-1,text,true,,50318,481,1,1,https://hansa.bodhi.cse.iitb.ac.in/assignments/details/9,283,0,0
1687600927110,364,Fetch Section Id-ASSIGNMENT3,200,OK,Assignment Setup 3-1,text,true,,53361,495,1,1,https://hansa.bodhi.cse.iitb.ac.in/assignments/details/10,359,0,0
1687600927476,447,Delete Sections,200,OK,Assignment Setup 3-1,text,true,,51959,973,1,1,https://hansa.bodhi.cse.iitb.ac.in/assignments/details/10,123,0,0
1687600927476,123,Delete Sections-0,302,Found,Assignment Setup 3-1,text,true,,330,491,1,1,https://hansa.bodhi.cse.iitb.ac.in/assignments/program/delete/2696,123,0,0
1687600927600,323,Delete Sections-1,200,OK,Assignment Setup 3-1,text,true,,51629,482,1,1,https://hansa.bodhi.cse.iitb.ac.in/assignments/details/10,319,0,0
1687600927925,392,Delete Sections,200,OK,Assignment Setup 3-1,text,true,,50668,973,1,1,https://hansa.bodhi.cse.iitb.ac.in/assignments/details/10,85,0,0
1687600927925,85,Delete Sections-0,302,Found,Assignment Setup 3-1,text,true,,330,491,1,1,https://hansa.bodhi.cse.iitb.ac.in/assignments/program/delete/2697,85,0,0
1687600928010,307,Delete Sections-1,200,OK,Assignment Setup 3-1,text,true,,50338,482,1,1,https://hansa.bodhi.cse.iitb.ac.in/assignments/details/10,303,0,0
1687600928321,15,JSR223 Sampler,200,OK,Assignment Setup 3-1,text,true,,16,0,1,1,null,0,0,0
1687600928337,1204,Modify Assignment1,200,OK,Assignment Setup 3-1,text,true,,53682,13290,1,1,https://hansa.bodhi.cse.iitb.ac.in/assignments/details/8,838,0,0
1687600928337,838,Modify Assignment1-0,302,Found,Assignment Setup 3-1,text,true,,329,12634,1,1,https://hansa.bodhi.cse.iitb.ac.in/assignments/edit/8/1,838,0,0
1687600929176,365,Modify Assignment1-1,200,OK,Assignment Setup 3-1,text,true,,53353,656,1,1,https://hansa.bodhi.cse.iitb.ac.in/assignments/details/8,361,0,0
1687600929562,560,GET SOULTION CODE ID1,200,OK,Assignment Setup 3-1,text,true,,53684,962,1,1,https://hansa.bodhi.cse.iitb.ac.in/assignments/details/8,90,0,0
1687600929562,90,GET SOULTION CODE ID1-0,302,Found,Assignment Setup 3-1,text,true,,329,481,1,1,https://hansa.bodhi.cse.iitb.ac.in/assignments/publish/8,90,0,0
1687600929652,470,GET SOULTION CODE ID1-1,200,OK,Assignment Setup 3-1,text,true,,53355,481,1,1,https://hansa.bodhi.cse.iitb.ac.in/assignments/details/8,466,0,0
1687600930139,431,PUBLIC A SOULTION CODE1,200,OK,Assignment Setup 3-1,text,true,,53675,962,1,1,https://hansa.bodhi.cse.iitb.ac.in/assignments/details/8,88,0,0
1687600930139,88,PUBLIC A SOULTION CODE1-0,302,Found,Assignment Setup 3-1,text,true,,329,481,1,1,https://hansa.bodhi.cse.iitb.ac.in/assignments/publish/8,88,0,0
1687600930227,343,PUBLIC A SOULTION CODE1-1,200,OK,Assignment Setup 3-1,text,true,,53346,481,1,1,https://hansa.bodhi.cse.iitb.ac.in/assignments/details/8,339,0,0
1687600930571,1061,Modify Assignment2,200,OK,Assignment Setup 3-1,text,true,,53665,13224,1,1,https://hansa.bodhi.cse.iitb.ac.in/assignments/details/9,705,0,0
1687600930571,705,Modify Assignment2-0,302,Found,Assignment Setup 3-1,text,true,,329,12568,1,1,https://hansa.bodhi.cse.iitb.ac.in/assignments/edit/9/1,705,0,0
1687600931277,355,Modify Assignment2-1,200,OK,Assignment Setup 3-1,text,true,,53336,656,1,1,https://hansa.bodhi.cse.iitb.ac.in/assignments/details/9,352,0,0
1687600931652,483,GET SOULTION CODE ID2,200,OK,Assignment Setup 3-1,text,true,,53673,962,1,1,https://hansa.bodhi.cse.iitb.ac.in/assignments/details/9,102,0,0
1687600931652,102,GET SOULTION CODE ID2-0,302,Found,Assignment Setup 3-1,text,true,,329,481,1,1,https://hansa.bodhi.cse.iitb.ac.in/assignments/publish/9,102,0,0
1687600931755,380,GET SOULTION CODE ID2-1,200,OK,Assignment Setup 3-1,text,true,,53344,481,1,1,https://hansa.bodhi.cse.iitb.ac.in/assignments/details/9,376,0,0
1687600932143,1089,Modify Assignment3,200,OK,Assignment Setup 3-1,text,true,,53691,13226,1,1,https://hansa.bodhi.cse.iitb.ac.in/assignments/details/10,741,0,0
1687600932143,741,Modify Assignment3-0,302,Found,Assignment Setup 3-1,text,true,,330,12569,1,1,https://hansa.bodhi.cse.iitb.ac.in/assignments/edit/10/1,741,0,0
1687600932885,347,Modify Assignment3-1,200,OK,Assignment Setup 3-1,text,true,,53361,657,1,1,https://hansa.bodhi.cse.iitb.ac.in/assignments/details/10,343,0,0
1687600933237,442,GET SOULTION CODE ID3,200,OK,Assignment Setup 3-1,text,true,,53692,964,1,1,https://hansa.bodhi.cse.iitb.ac.in/assignments/details/10,91,0,0
1687600933237,91,GET SOULTION CODE ID3-0,302,Found,Assignment Setup 3-1,text,true,,330,482,1,1,https://hansa.bodhi.cse.iitb.ac.in/assignments/publish/10,91,0,0
1687600933328,351,GET SOULTION CODE ID3-1,200,OK,Assignment Setup 3-1,text,true,,53362,482,1,1,https://hansa.bodhi.cse.iitb.ac.in/assignments/details/10,347,0,0
1687600933690,1,Debug Sampler,200,OK,Assignment Setup 3-1,text,true,,7668,0,1,1,null,0,0,0
1687600933696,58,CSRF-1,200,OK,Student Upload code in Assignment1 4-1,text,true,,27506,379,1,1,https://hansa.bodhi.cse.iitb.ac.in/accounts/login/,56,0,6
1687600933755,284,LOGIN assignment 1 by user number -1,200,OK,Student Upload code in Assignment1 4-1,text,true,,1927,1486,1,1,https://hansa.bodhi.cse.iitb.ac.in/frontend/courseware/courseslist/,236,0,2
1687600933755,236,LOGIN assignment 1 by user number -1-0,302,Found,Student Upload code in Assignment1 4-1,text,true,,591,770,1,1,https://hansa.bodhi.cse.iitb.ac.in/accounts/login/,236,0,2
1687600933992,47,LOGIN assignment 1 by user number -1-1,200,OK,Student Upload code in Assignment1 4-1,text,true,,1336,716,1,1,https://hansa.bodhi.cse.iitb.ac.in/frontend/courseware/courseslist/,47,0,0
1687600934066,364,OPEN ASSIGNMENT 1 by user number-1,200,OK,Student Upload code in Assignment1 4-1,text,true,,37408,494,1,1,https://hansa.bodhi.cse.iitb.ac.in/assignments/details/8,361,0,0
1687600934432,706,Upload ALL PASS PROGRAM,200,OK,Student Upload code in Assignment1 4-1,text,true,,37744,1957,1,1,https://hansa.bodhi.cse.iitb.ac.in/assignments/details/8,354,0,0
1687600934432,354,Upload ALL PASS PROGRAM-0,302,Found,Student Upload code in Assignment1 4-1,text,true,,329,1476,1,1,https://hansa.bodhi.cse.iitb.ac.in/assignments/details/8,354,0,0
1687600934787,351,Upload ALL PASS PROGRAM-1,200,OK,Student Upload code in Assignment1 4-1,text,true,,37415,481,1,1,https://hansa.bodhi.cse.iitb.ac.in/assignments/details/8,349,0,0
1687600935642,373,GetSubmissionId,200,OK,Student Upload code in Assignment1 4-1,text,true,,37415,481,1,1,https://hansa.bodhi.cse.iitb.ac.in/assignments/details/8,371,0,0
1687600936016,1539,freezeAssignment-ALL PASS,200,OK,Student Upload code in Assignment1 4-1,text,true,,122905,477,1,1,https://hansa.bodhi.cse.iitb.ac.in/upload/freeze/351,1529,0,0
1687600937585,2166,RunPractice,200,OK,Student Upload code in Assignment1 4-1,text,true,,29118,481,1,1,https://hansa.bodhi.cse.iitb.ac.in/evaluate/practice/351,2165,0,0
1687600939752,130,JSR223 Sampler,200,OK,Student Upload code in Assignment1 4-1,text,true,,0,0,1,1,null,0,0,0
1687600946048,269,TestcasesResults,200,OK,Student Upload code in Assignment1 4-1,text,true,,40458,489,1,1,https://hansa.bodhi.cse.iitb.ac.in/evaluate/results/practice/351,266,0,0
1687600933695,5889,Test-1,200,"Number of samples in transaction : 12, number of failing samples : 0",Student Upload code in Assignment1 4-1,,true,,334481,6244,1,1,null,5338,6758,8
1687600946343,0,Debug Sampler-1,200,OK,Student Upload code in Assignment1 4-1,text,true,,4938,0,1,1,null,0,0,0
