timeStamp,elapsed,label,responseCode,responseMessage,threadName,dataType,success,failureMessage,bytes,sentBytes,grpThreads,allThreads,URL,Latency,IdleTime,Connect
1687601661989,142,CSRF-1,200,OK,Parse Assignment Id 1-1,text,true,,27500,379,1,1,https://hansa.bodhi.cse.iitb.ac.in/accounts/login/,140,0,91
1687601662133,185,LOGIN-1,200,OK,Parse Assignment Id 1-1,text,true,,1927,1472,1,1,https://hansa.bodhi.cse.iitb.ac.in/frontend/courseware/courseslist/,136,0,4
1687601662133,136,LOGIN-1-0,302,Found,Parse Assignment Id 1-1,text,true,,591,756,1,1,https://hansa.bodhi.cse.iitb.ac.in/accounts/login/,136,0,4
1687601662273,45,LOGIN-1-1,200,OK,Parse Assignment Id 1-1,text,true,,1336,716,1,1,https://hansa.bodhi.cse.iitb.ac.in/frontend/courseware/courseslist/,45,0,0
1687601662608,85,student courses id-1,200,OK,Parse Assignment Id 1-1,text,true,,1549,511,1,1,https://hansa.bodhi.cse.iitb.ac.in/courseware/instructor_courses_json/%20,85,0,0
1687601662707,76,assignment id-1,200,OK,Parse Assignment Id 1-1,text,true,,784,677,1,1,https://hansa.bodhi.cse.iitb.ac.in/courseware/api/course/%203/all_assignments/?format=json,75,0,0
1687601661959,488,Test-1,200,"Number of samples in transaction : 4, number of failing samples : 0",Parse Assignment Id 1-1,,true,,31760,3039,1,1,null,436,371,95
1687601662819,1,Debug Sampler-1,200,OK,Parse Assignment Id 1-1,text,true,,3913,0,1,1,null,0,0,0
1687601662823,54,CSRF-1,200,OK,clear exam histroy 2-1,text,true,,27505,379,1,1,https://hansa.bodhi.cse.iitb.ac.in/accounts/login/,52,0,8
1687601662878,152,LOGIN-1,200,OK,clear exam histroy 2-1,text,true,,1927,1472,1,1,https://hansa.bodhi.cse.iitb.ac.in/frontend/courseware/courseslist/,107,0,3
1687601662878,107,LOGIN-1-0,302,Found,clear exam histroy 2-1,text,true,,591,756,1,1,https://hansa.bodhi.cse.iitb.ac.in/accounts/login/,107,0,3
1687601662986,44,LOGIN-1-1,200,OK,clear exam histroy 2-1,text,true,,1336,716,1,1,https://hansa.bodhi.cse.iitb.ac.in/frontend/courseware/courseslist/,44,0,0
1687601663032,154,assignment 1 clear exam histroy-1,200,OK,clear exam histroy 2-1,text,true,,17340,1331,1,1,https://hansa.bodhi.cse.iitb.ac.in/assignments/exam/proctoring/3,55,0,0
1687601663032,55,assignment 1 clear exam histroy-1-0,302,Found,clear exam histroy 2-1,text,true,,323,667,1,1,https://hansa.bodhi.cse.iitb.ac.in/assignments/exam/proctor/clear/8,55,0,0
1687601663087,99,assignment 1 clear exam histroy-1-1,200,OK,clear exam histroy 2-1,text,true,,17017,664,1,1,https://hansa.bodhi.cse.iitb.ac.in/assignments/exam/proctoring/3,97,0,0
1687601663188,152,assignment 2 clear exam histroy-1,200,OK,clear exam histroy 2-1,text,true,,17340,1331,1,1,https://hansa.bodhi.cse.iitb.ac.in/assignments/exam/proctoring/3,52,0,0
1687601663188,52,assignment 2 clear exam histroy-1-0,302,Found,clear exam histroy 2-1,text,true,,323,667,1,1,https://hansa.bodhi.cse.iitb.ac.in/assignments/exam/proctor/clear/9,52,0,0
1687601663240,100,assignment 2 clear exam histroy-1-1,200,OK,clear exam histroy 2-1,text,true,,17017,664,1,1,https://hansa.bodhi.cse.iitb.ac.in/assignments/exam/proctoring/3,99,0,0
1687601663340,156,assignment 3 clear exam histroy-1,200,OK,clear exam histroy 2-1,text,true,,17340,1332,1,1,https://hansa.bodhi.cse.iitb.ac.in/assignments/exam/proctoring/3,48,0,0
1687601663340,48,assignment 3 clear exam histroy-1-0,302,Found,clear exam histroy 2-1,text,true,,323,668,1,1,https://hansa.bodhi.cse.iitb.ac.in/assignments/exam/proctor/clear/10,48,0,0
1687601663388,108,assignment 3 clear exam histroy-1-1,200,OK,clear exam histroy 2-1,text,true,,17017,664,1,1,https://hansa.bodhi.cse.iitb.ac.in/assignments/exam/proctoring/3,107,0,0
1687601663497,0,Debug Sampler,200,OK,clear exam histroy 2-1,text,true,,6870,0,1,1,null,0,0,0
1687601663503,59,CSRF-1,200,OK,Assignment Setup 3-1,text,true,,27512,379,1,1,https://hansa.bodhi.cse.iitb.ac.in/accounts/login/,57,0,6
1687601663563,159,LOGIN-1,200,OK,Assignment Setup 3-1,text,true,,1927,1472,1,1,https://hansa.bodhi.cse.iitb.ac.in/frontend/courseware/courseslist/,114,0,3
1687601663563,114,LOGIN-1-0,302,Found,Assignment Setup 3-1,text,true,,591,756,1,1,https://hansa.bodhi.cse.iitb.ac.in/accounts/login/,114,0,3
1687601663677,45,LOGIN-1-1,200,OK,Assignment Setup 3-1,text,true,,1336,716,1,1,https://hansa.bodhi.cse.iitb.ac.in/frontend/courseware/courseslist/,45,0,0
1687601663723,350,Fetch Section Id-ASSIGNMENT1,200,OK,Assignment Setup 3-1,text,true,,53339,494,1,1,https://hansa.bodhi.cse.iitb.ac.in/assignments/details/8,344,0,0
1687601664078,447,Delete Sections,200,OK,Assignment Setup 3-1,text,true,,51952,972,1,1,https://hansa.bodhi.cse.iitb.ac.in/assignments/details/8,102,0,0
1687601664078,102,Delete Sections-0,302,Found,Assignment Setup 3-1,text,true,,329,491,1,1,https://hansa.bodhi.cse.iitb.ac.in/assignments/program/delete/2806,102,0,0
1687601664180,345,Delete Sections-1,200,OK,Assignment Setup 3-1,text,true,,51623,481,1,1,https://hansa.bodhi.cse.iitb.ac.in/assignments/details/8,339,0,0
1687601664525,415,Delete Sections,200,OK,Assignment Setup 3-1,text,true,,50656,972,1,1,https://hansa.bodhi.cse.iitb.ac.in/assignments/details/8,97,0,0
1687601664525,97,Delete Sections-0,302,Found,Assignment Setup 3-1,text,true,,329,491,1,1,https://hansa.bodhi.cse.iitb.ac.in/assignments/program/delete/2807,97,0,0
1687601664622,318,Delete Sections-1,200,OK,Assignment Setup 3-1,text,true,,50327,481,1,1,https://hansa.bodhi.cse.iitb.ac.in/assignments/details/8,313,0,0
1687601664942,363,Fetch Section Id-ASSIGNMENT2,200,OK,Assignment Setup 3-1,text,true,,53351,494,1,1,https://hansa.bodhi.cse.iitb.ac.in/assignments/details/9,359,0,0
1687601665307,473,Delete Sections,200,OK,Assignment Setup 3-1,text,true,,51945,972,1,1,https://hansa.bodhi.cse.iitb.ac.in/assignments/details/9,97,0,0
1687601665307,97,Delete Sections-0,302,Found,Assignment Setup 3-1,text,true,,329,491,1,1,https://hansa.bodhi.cse.iitb.ac.in/assignments/program/delete/2808,97,0,0
1687601665405,375,Delete Sections-1,200,OK,Assignment Setup 3-1,text,true,,51616,481,1,1,https://hansa.bodhi.cse.iitb.ac.in/assignments/details/9,370,0,0
1687601665782,407,Delete Sections,200,OK,Assignment Setup 3-1,text,true,,50648,972,1,1,https://hansa.bodhi.cse.iitb.ac.in/assignments/details/9,107,0,0
1687601665782,107,Delete Sections-0,302,Found,Assignment Setup 3-1,text,true,,329,491,1,1,https://hansa.bodhi.cse.iitb.ac.in/assignments/program/delete/2809,107,0,0
1687601665890,299,Delete Sections-1,200,OK,Assignment Setup 3-1,text,true,,50319,481,1,1,https://hansa.bodhi.cse.iitb.ac.in/assignments/details/9,294,0,0
1687601666192,365,Fetch Section Id-ASSIGNMENT3,200,OK,Assignment Setup 3-1,text,true,,53363,495,1,1,https://hansa.bodhi.cse.iitb.ac.in/assignments/details/10,361,0,0
1687601666559,443,Delete Sections,200,OK,Assignment Setup 3-1,text,true,,51967,973,1,1,https://hansa.bodhi.cse.iitb.ac.in/assignments/details/10,114,0,0
1687601666559,114,Delete Sections-0,302,Found,Assignment Setup 3-1,text,true,,330,491,1,1,https://hansa.bodhi.cse.iitb.ac.in/assignments/program/delete/2810,114,0,0
1687601666673,329,Delete Sections-1,200,OK,Assignment Setup 3-1,text,true,,51637,482,1,1,https://hansa.bodhi.cse.iitb.ac.in/assignments/details/10,324,0,0
1687601667004,488,Delete Sections,200,OK,Assignment Setup 3-1,text,true,,50664,973,1,1,https://hansa.bodhi.cse.iitb.ac.in/assignments/details/10,103,0,0
1687601667004,103,Delete Sections-0,302,Found,Assignment Setup 3-1,text,true,,330,491,1,1,https://hansa.bodhi.cse.iitb.ac.in/assignments/program/delete/2811,103,0,0
1687601667108,384,Delete Sections-1,200,OK,Assignment Setup 3-1,text,true,,50334,482,1,1,https://hansa.bodhi.cse.iitb.ac.in/assignments/details/10,380,0,0
1687601667499,18,JSR223 Sampler,200,OK,Assignment Setup 3-1,text,true,,16,0,1,1,null,0,0,0
1687601667517,1102,Modify Assignment1,200,OK,Assignment Setup 3-1,text,true,,53675,13356,1,1,https://hansa.bodhi.cse.iitb.ac.in/assignments/details/8,736,0,0
1687601667517,736,Modify Assignment1-0,302,Found,Assignment Setup 3-1,text,true,,329,12700,1,1,https://hansa.bodhi.cse.iitb.ac.in/assignments/edit/8/1,736,0,0
1687601668254,365,Modify Assignment1-1,200,OK,Assignment Setup 3-1,text,true,,53346,656,1,1,https://hansa.bodhi.cse.iitb.ac.in/assignments/details/8,361,0,0
1687601668643,426,GET SOULTION CODE ID1,200,OK,Assignment Setup 3-1,text,true,,53678,962,1,1,https://hansa.bodhi.cse.iitb.ac.in/assignments/details/8,80,0,0
1687601668643,80,GET SOULTION CODE ID1-0,302,Found,Assignment Setup 3-1,text,true,,329,481,1,1,https://hansa.bodhi.cse.iitb.ac.in/assignments/publish/8,80,0,0
1687601668723,346,GET SOULTION CODE ID1-1,200,OK,Assignment Setup 3-1,text,true,,53349,481,1,1,https://hansa.bodhi.cse.iitb.ac.in/assignments/details/8,342,0,0
1687601669076,486,PUBLIC A SOULTION CODE1,200,OK,Assignment Setup 3-1,text,true,,53675,962,1,1,https://hansa.bodhi.cse.iitb.ac.in/assignments/details/8,97,0,0
1687601669076,97,PUBLIC A SOULTION CODE1-0,302,Found,Assignment Setup 3-1,text,true,,329,481,1,1,https://hansa.bodhi.cse.iitb.ac.in/assignments/publish/8,97,0,0
1687601669174,388,PUBLIC A SOULTION CODE1-1,200,OK,Assignment Setup 3-1,text,true,,53346,481,1,1,https://hansa.bodhi.cse.iitb.ac.in/assignments/details/8,377,0,0
1687601669564,1053,Modify Assignment2,200,OK,Assignment Setup 3-1,text,true,,53681,13158,1,1,https://hansa.bodhi.cse.iitb.ac.in/assignments/details/9,690,0,0
1687601669564,690,Modify Assignment2-0,302,Found,Assignment Setup 3-1,text,true,,329,12502,1,1,https://hansa.bodhi.cse.iitb.ac.in/assignments/edit/9/1,690,0,0
1687601670255,362,Modify Assignment2-1,200,OK,Assignment Setup 3-1,text,true,,53352,656,1,1,https://hansa.bodhi.cse.iitb.ac.in/assignments/details/9,358,0,0
1687601670641,427,GET SOULTION CODE ID2,200,OK,Assignment Setup 3-1,text,true,,53678,962,1,1,https://hansa.bodhi.cse.iitb.ac.in/assignments/details/9,74,0,0
1687601670641,74,GET SOULTION CODE ID2-0,302,Found,Assignment Setup 3-1,text,true,,329,481,1,1,https://hansa.bodhi.cse.iitb.ac.in/assignments/publish/9,74,0,0
1687601670716,352,GET SOULTION CODE ID2-1,200,OK,Assignment Setup 3-1,text,true,,53349,481,1,1,https://hansa.bodhi.cse.iitb.ac.in/assignments/details/9,348,0,0
1687601671083,1244,Modify Assignment3,200,OK,Assignment Setup 3-1,text,true,,53693,13391,1,1,https://hansa.bodhi.cse.iitb.ac.in/assignments/details/10,772,0,0
1687601671083,772,Modify Assignment3-0,302,Found,Assignment Setup 3-1,text,true,,330,12734,1,1,https://hansa.bodhi.cse.iitb.ac.in/assignments/edit/10/1,772,0,0
1687601671855,472,Modify Assignment3-1,200,OK,Assignment Setup 3-1,text,true,,53363,657,1,1,https://hansa.bodhi.cse.iitb.ac.in/assignments/details/10,468,0,0
1687601672337,468,GET SOULTION CODE ID3,200,OK,Assignment Setup 3-1,text,true,,53685,964,1,1,https://hansa.bodhi.cse.iitb.ac.in/assignments/details/10,79,0,0
1687601672337,79,GET SOULTION CODE ID3-0,302,Found,Assignment Setup 3-1,text,true,,330,482,1,1,https://hansa.bodhi.cse.iitb.ac.in/assignments/publish/10,79,0,0
1687601672416,389,GET SOULTION CODE ID3-1,200,OK,Assignment Setup 3-1,text,true,,53355,482,1,1,https://hansa.bodhi.cse.iitb.ac.in/assignments/details/10,385,0,0
1687601672810,1,Debug Sampler,200,OK,Assignment Setup 3-1,text,true,,7648,0,1,1,null,0,0,0
1687601672817,53,CSRF-1,200,OK,Student1 valid ip1 open assignment1 4-1,text,true,,27499,379,1,1,https://hansa.bodhi.cse.iitb.ac.in/accounts/login/,51,0,6
1687601672871,157,LOGIN assignment 1 by user number -1,200,OK,Student1 valid ip1 open assignment1 4-1,text,true,,1927,1486,1,1,https://hansa.bodhi.cse.iitb.ac.in/frontend/courseware/courseslist/,108,0,4
1687601672871,108,LOGIN assignment 1 by user number -1-0,302,Found,Student1 valid ip1 open assignment1 4-1,text,true,,591,770,1,1,https://hansa.bodhi.cse.iitb.ac.in/accounts/login/,108,0,4
1687601672980,48,LOGIN assignment 1 by user number -1-1,200,OK,Student1 valid ip1 open assignment1 4-1,text,true,,1336,716,1,1,https://hansa.bodhi.cse.iitb.ac.in/frontend/courseware/courseslist/,48,0,0
1687601673042,0,BeanShell Sampler,200,OK,Student1 valid ip1 open assignment1 4-1,text,true,,0,0,1,1,null,0,0,0
1687601673043,397,OPEN ASSIGNMENT 1 by user number-1,200,OK,Student1 valid ip1 open assignment1 4-1,text,true,,38491,494,1,1,https://hansa.bodhi.cse.iitb.ac.in/assignments/details/8,394,0,0
1687601672816,607,Test,200,"Number of samples in transaction : 4, number of failing samples : 0",Student1 valid ip1 open assignment1 4-1,,true,,67917,2359,1,1,null,553,20,10
1687601673443,1,Debug Sampler,200,OK,Student1 valid ip1 open assignment1 4-1,text,true,,3651,0,1,1,null,0,0,0
1687601673448,57,CSRF-1,200,OK,Student2 with IP2 TRY TO OPEN ASSIGNMENT2 5-1,text,true,,27505,379,1,1,https://hansa.bodhi.cse.iitb.ac.in/accounts/login/,55,0,6
1687601673507,166,LOGIN assignment 2 by user number -1,200,OK,Student2 with IP2 TRY TO OPEN ASSIGNMENT2 5-1,text,true,,1927,1486,1,1,https://hansa.bodhi.cse.iitb.ac.in/frontend/courseware/courseslist/,115,0,6
1687601673507,115,LOGIN assignment 2 by user number -1-0,302,Found,Student2 with IP2 TRY TO OPEN ASSIGNMENT2 5-1,text,true,,591,770,1,1,https://hansa.bodhi.cse.iitb.ac.in/accounts/login/,115,0,6
1687601673623,50,LOGIN assignment 2 by user number -1-1,200,OK,Student2 with IP2 TRY TO OPEN ASSIGNMENT2 5-1,text,true,,1336,716,1,1,https://hansa.bodhi.cse.iitb.ac.in/frontend/courseware/courseslist/,50,0,0
1687601673676,361,OPEN ASSIGNMENT 2 by user number-1,200,OK,Student2 with IP2 TRY TO OPEN ASSIGNMENT2 5-1,text,false,Unauthorised student able to login in IP Protection failure.,34242,494,1,1,https://hansa.bodhi.cse.iitb.ac.in/assignments/details/9,359,0,0
1687601673447,584,Test,,"Number of samples in transaction : 3, number of failing samples : 1",Student2 with IP2 TRY TO OPEN ASSIGNMENT2 5-1,,false,,63674,2359,1,1,null,529,9,12
1687601674040,1,Debug Sampler,200,OK,Student2 with IP2 TRY TO OPEN ASSIGNMENT2 5-1,text,true,,3658,0,1,1,null,0,0,0
