Assignment Name,Assignment Id,DEADLINE_GAP_SEC,DEADLINE_GAP_MSEC,TIMEDURATION_SEC,TIMEDURATION_MSEC,LATEDURATION_SEC,LATEDURATION_MSEC
ExamMode1,8,300,300000,120,120000,3600,3600000
ExamMode2,9,240,240000,7200,7200000,3600,3600000
ExamMode3,10,360,360000,7200,7200000,3600,3600000
