name_tabid,name,description,publish_on,deadlineGap,deadline,freezing_deadline,type_of_allocation,programmingCheck,program_language,student_program_files,ignore_extra_spaces,correctness,order,error,id_exam,type_of_lab,timeduration,late_duration,exam_group_id,ipaddress,Publish,bulk_add,model_solution,publish_type
1,ExamMode1,Add 2 number,0,5,Now + 2min,2033-05-31 11:30:00,Automated,on,C,main.c,,on,,0,on,Exam,01:00:00,01:00:00,abc80,10.129.131.0-10.129.131.255,Save & Close,../../testdata/assignmentsetup/correct/ExamMode1.zip,../../testdata/programfile/ALLPASS/main.c,Scheduled
1,ExamMode2,Add 2 number,0,5,Now + 2min,2033-06-01 11:30:00,Automated,on,C,main.c,,on,,0,on,Exam,02:00:00,01:00:00,abc80,10.129.131.0-10.129.131.255,Save & Close,../../testdata/assignmentsetup/correct/ExamMode2.zip,../../testdata/programfile/ALLPASS/main.c,Scheduled
1,ExamMode3,Add 2 number,0,5,Now + 2min,2033-06-02 11:30:00,Automated,on,C,main.c,,on,,0,on,Exam,02:00:00,01:00:00,abc80,10.129.131.0-10.129.131.255,Save & Close,../../testdata/assignmentsetup/correct/ExamMode3.zip,../../testdata/programfile/ALLPASS/main.c,Scheduled
